Place,Name,State,WeightClassKg,BodyweightKg,BirthDate,Age,Squat1Kg,Squat2Kg,Squat3Kg,Best3SquatKg,Bench1Kg,Bench2Kg,Bench3Kg,Best3BenchKg,Deadlift1Kg,Deadlift2Kg,Deadlift3Kg,Best3DeadliftKg,TotalKg,Deadlift4Kg,Event,Equipment,Sex,Division
1,Serena Abweh,NM,48,47,,20,85,92.5,100,100,57.5,62.5,-70,62.5,135,145,147.5,147.5,310,152.5,SBD,Raw,F,Juniors 20-23
1,Nina Morales,NM,60,59.5,,22,82.5,95,,95,45,52.5,55,55,125,-140,140,140,290,,SBD,Raw,F,Juniors 20-23
1,Jade Demaray,NM,56,54,,32,117.5,122.5,-127.5,122.5,62.5,-67.5,-67.5,62.5,147.5,152.5,-157.5,152.5,337.5,,SBD,Raw,F,Open
1,Nina Morales,NM,60,59.5,,22,82.5,95,,95,45,52.5,55,55,125,-140,140,140,290,,SBD,Raw,F,Open
1,Alondra Soto,TX,67.5,67.4,,24,155,170,-175,170,-57.5,57.5,60,60,137.5,142.5,150,150,380,,SBD,Raw,F,Open
2,Samantha Alvidrez,NM,67.5,67.1,,35,87.5,92.5,-97.5,92.5,-52.5,55,-60,55,102.5,110,122.5,122.5,270,,SBD,Raw,F,Open
1,Manuela Toscano,TX,75,73.3,,24,-145,145,152.5,152.5,60,67.5,70,70,157.5,167.5,172.5,172.5,395,,SBD,Raw,F,Open
2,Brenda Conejo,NM,75,73.9,,22,105,-112.5,115,115,50,-55,-57.5,50,125,135,-145,135,300,,SBD,Raw,F,Open
1,Rosa Lopez,TX,90+,112.3,,34,165,182.5,192.5,192.5,95,102.5,-107.5,102.5,-190,205,215,215,510,,SBD,Raw,F,Open
1,Samantha Alvidrez,NM,67.5,67.1,,35,87.5,92.5,-97.5,92.5,-52.5,55,-60,55,102.5,110,122.5,122.5,270,,SBD,Raw,F,Submasters 35-39
1,Sabrina Candelaria,NM,60,59.4,,44,65,-72.5,77.5,77.5,50,-55,55,55,82.5,-90,92.5,92.5,225,97.5,SBD,Raw,F,Masters 40-44
1,Susan Renick,NM,67.5,65.7,,55,77.5,85,87.5,87.5,57.5,-60,62.5,62.5,97.5,102.5,107.5,107.5,257.5,,SBD,Raw,F,Masters 55-59
1,Benjamin Lujan,NM,90,88.2,,22,260,275,-277.5,275,-147.5,160,-165,160,272.5,-287.5,-287.5,272.5,707.5,,SBD,Raw,M,Juniors 20-23
1,Thomas Tieszen,NM,100,98,,23,245,255,267.5,267.5,165,170,177.5,177.5,272.5,295,307.5,307.5,752.5,,SBD,Raw,M,Juniors 20-23
1,Jose Escobar,TX,60,59.8,,29,162.5,170,182.5,182.5,-107.5,115,122.5,122.5,175,182.5,-187.5,182.5,487.5,,SBD,Raw,M,Open
1,Henry Montoya,NM,67.5,65.1,,23,200,207.5,-212.5,207.5,-125,125,-132.5,125,205,212.5,220,220,552.5,,SBD,Raw,M,Open
1,Salvador Sisneros,NM,82.5,78.5,,30,142.5,155,-160,155,120,130,-135,130,157.5,185,205,205,490,,SBD,Raw,M,Open
2,Andrew Salazar,NM,82.5,79.6,,24,122.5,145,157.5,157.5,90,97.5,102.5,102.5,177.5,190,197.5,197.5,457.5,,SBD,Raw,M,Open
1,Benjamin Lujan,NM,90,88.2,,22,260,275,-277.5,275,-147.5,160,-165,160,272.5,-287.5,-287.5,272.5,707.5,,SBD,Raw,M,Open
2,Garrett Gonzales,NM,90,89.5,,34,157.5,182.5,,182.5,-90,90,-105,90,250,275,287.5,287.5,560,,SBD,Raw,M,Open
1,Thomas Tieszen,NM,100,98,,23,245,255,267.5,267.5,165,170,177.5,177.5,272.5,295,307.5,307.5,752.5,,SBD,Raw,M,Open
2,Joey LaGrange,NM,100,95.5,,24,225,232.5,-240,232.5,142.5,147.5,157.5,157.5,270,-275,-275,270,660,,SBD,Raw,M,Open
1,Levi Del Curto,NM,110,106.8,,32,-262.5,262.5,270,270,-177.5,187.5,192.5,192.5,295,305,-310,305,767.5,,SBD,Raw,M,Open
2,Dane Wilson-Bass,TX,110,106.8,,35,192.5,210,-217.5,210,157.5,-165,-165,157.5,247.5,255,260,260,627.5,,SBD,Raw,M,Open
1,Jonathan Garay,NM,125,120.5,,24,225,230,235,235,155,160,-167.5,160,225,237.5,-250,237.5,632.5,,SBD,Raw,M,Open
1,Dane Wilson-Bass,TX,110,106.8,,35,192.5,210,-217.5,210,157.5,-165,-165,157.5,247.5,255,260,260,627.5,,SBD,Raw,M,Submasters 35-39
1,Michael Espinosa,CO,125,114.2,,35,227.5,242.5,252.5,252.5,172.5,-182.5,-182.5,172.5,232.5,245,-257.5,245,670,,SBD,Raw,M,Submasters 35-39
1,Scott Ukeiley,NM,100,97.1,,53,162.5,170,175,175,132.5,140,145,145,205,217.5,227.5,227.5,547.5,,SBD,Raw,M,Masters 50-54
1,Roger Graham,NM,110,104.5,,45,-137.5,142.5,150,150,135,150,170,170,220,-240,-240,220,540,,SBD,Raw,M,Masters 45-49
1,Celina Carroll,NM,90,83.7,,25,132.5,145,,145,72.5,77.5,-82.5,77.5,132.5,137.5,-147.5,137.5,360,,SBD,Wraps,F,Open
1,Daniel Nguyen #1,NM,82.5,81.9,,28,-230,230,235,235,140,145,-150,145,282.5,-292.5,,282.5,662.5,,SBD,Wraps,M,Open
DQ,Bradley Hernandez,TX,82.5,80,,24,232.5,-240,-240,232.5,-140,-140,-140,,,,,,,,SBD,Wraps,M,Open
1,Nathaniel Ruiz,NM,90,89.9,,30,-255,255,-265,255,160,170,,170,245,255,270,270,695,,SBD,Wraps,M,Open
2,Orlando Lucero,NM,90,87.2,,29,200,-205,,200,130,137.5,140,140,220,222.5,-227.5,222.5,562.5,,SBD,Wraps,M,Open
1,Jose Ortega,NM,100,91.5,,27,240,-247.5,-260,240,150,157.5,-172.5,157.5,272.5,282.5,287.5,287.5,685,,SBD,Wraps,M,Open
1,Jerod Smith,NM,110,105.4,,29,230,235,237.5,237.5,152.5,162.5,-167.5,162.5,225,235,-237.5,235,635,,SBD,Wraps,M,Open
1,Eric Olivas,NM,125,122.5,,35,287.5,297.5,-305,297.5,205,,,205,272.5,287.5,300,300,802.5,,SBD,Wraps,M,Open
1,Estevan Lucero,NM,140,138.9,,32,-322.5,337.5,342.5,342.5,197.5,207.5,-220,207.5,290,300,-305,300,850,,SBD,Wraps,M,Open
1,Ismael Hernandez,NM,110,103,,42,-265,-280,280,280,175,182.5,-190,182.5,272.5,282.5,-290,282.5,745,,SBD,Wraps,M,Masters 40-44
1,Isaac Wollard,NM,100,92.7,,20,,,,,137.5,147.5,152.5,152.5,,,,,152.5,,B,Raw,M,Juniors 20-23
1,Isaac Wollard,NM,100,92.7,,20,,,,,137.5,147.5,152.5,152.5,,,,,152.5,,B,Raw,M,Open
2,Samuel Romero,NM,100,97.2,,32,,,,,142.5,147.5,-160,147.5,,,,,147.5,,B,Raw,M,Open
1,Michael Espinosa,CO,125,114.2,,35,,,,,172.5,-182.5,-182.5,172.5,,,,,172.5,,B,Raw,M,Submasters 35-39
1,Jacob Semeniuk,NM,100,93.6,,27,,,,,,,,,212.5,222.5,232.5,232.5,232.5,,D,Raw,M,Open
1,Dane Wilson-Bass,TX,110,106.8,,35,,,,,,,,,247.5,255,260,260,260,,D,Raw,M,Open
1,Dane Wilson-Bass,TX,110,106.8,,35,,,,,,,,,247.5,255,260,260,260,,D,Raw,M,Submasters 35-39
1,Kenny Croxdale,NM,90,86.2,,72,,,,,,,,,172.5,-182.5,-182.5,172.5,172.5,,D,Raw,M,Masters 70-74
