Name,WeightClassKg,BodyweightKg,Best3SquatKg,Best3BenchKg,Best3DeadliftKg,TotalKg,Event,Equipment,Sex,Division,Tested,Place
Vin Scelfo,60,56,197.31,97.52,195.04,489.88,SBD,Single-ply,M,Open,Yes,1
Tom Dopson,60,,,,,453.59,SBD,Single-ply,M,Open,Yes,2
M. Beacham,60,,,,,349.27,SBD,Single-ply,M,Open,Yes,3
G. White,60,,,,,310.71,SBD,Single-ply,M,Open,Yes,4
S. Lindy,60,,,,,224.53,SBD,Single-ply,M,Open,Yes,5
Judd Biasiotto,67.5,,,,,560.19,SBD,Single-ply,M,Open,Yes,1
Greg Wright,67.5,,,,,503.49,SBD,Single-ply,M,Open,Yes,2
D. Sweatt,67.5,,,,,458.13,SBD,Single-ply,M,Open,Yes,3
D. Wilkinson,67.5,,,,,455.86,SBD,Single-ply,M,Open,Yes,4
J. McDonald,67.5,,,,,453.59,SBD,Single-ply,M,Open,Yes,5
George Herring #1,75,,238.14,149.69,241.31,629.13,SBD,Single-ply,M,Open,Yes,1
J. Robertson,75,,,,,564.72,SBD,Single-ply,M,Open,Yes,2
Randy Heller,75,,,,,544.31,SBD,Single-ply,M,Open,Yes,3
J. Haymore,75,,,,,464.93,SBD,Single-ply,M,Open,Yes,4
Benji Dille,75,,,,,462.66,SBD,Single-ply,M,Open,Yes,5
Carl Jones #2,82.5,,,,,623.69,SBD,Single-ply,M,Open,Yes,1
J. Lennon,82.5,,,,,621.42,SBD,Single-ply,M,Open,Yes,2
Steve Zimmerman,82.5,,,,,576.06,SBD,Single-ply,M,Open,Yes,3
J. Jeffers,82.5,,,,,568.35,SBD,Single-ply,M,Open,Yes,4
P. Scott,82.5,,,,,517.1,SBD,Single-ply,M,Open,Yes,5
Marc Jones,82.5,,,,,505.76,SBD,Single-ply,M,Open,Yes,6
Wade Bowers,82.5,,,,,426.38,SBD,Single-ply,M,Open,Yes,7
Garry Bradley,90,,260.82,170.1,260.82,691.73,SBD,Single-ply,M,Open,Yes,1
Leroy Willis,90,,204.12,149.69,294.84,648.64,SBD,Single-ply,M,Open,Yes,2
Bruce Washington,90,,,,,619.15,SBD,Single-ply,M,Open,Yes,3
A. Szekes,90,,,,,451.32,SBD,Single-ply,M,Open,Yes,4
Denis Ference,100,,,,,725.75,SBD,Single-ply,M,Open,Yes,1
B. Lodwet,100,,,,,655.44,SBD,Single-ply,M,Open,Yes,2
R. Banks,100,,,,,635.03,SBD,Single-ply,M,Open,Yes,3
G. Franklin,100,,,,,557.92,SBD,Single-ply,M,Open,Yes,4
EJ Kreis,110,,,,,646.37,SBD,Single-ply,M,Open,Yes,1
S. Johnson #7,110,,,,,614.62,SBD,Single-ply,M,Open,Yes,2
J. McLeod,110,,,,,464.93,SBD,Single-ply,M,Open,Yes,3
H. Hendley,125,,,,,546.58,SBD,Single-ply,M,Open,Yes,1
J. Parrish #1,125,,,,,503.49,SBD,Single-ply,M,Open,Yes,2
R. Jameson,125,,,,,503.49,SBD,Single-ply,M,Open,Yes,3
T. Howell,125,,,,,483.08,SBD,Single-ply,M,Open,Yes,4
J. Rouse,125+,,,,,639.57,SBD,Single-ply,M,Open,Yes,1
Tom Dopson,60,,,104.33,,104.33,B,Raw,M,Open,Yes,1
Randall Kea,60,,,99.79,,99.79,B,Raw,M,Open,Yes,2
M. Beacham,60,,,79.38,,79.38,B,Raw,M,Open,Yes,3
Judd Biasiotto,67.5,,,129.27,,129.27,B,Raw,M,Open,Yes,1
D. Wright,67.5,,,127.01,,127.01,B,Raw,M,Open,Yes,2
D. Wilkinson,67.5,,,117.93,,117.93,B,Raw,M,Open,Yes,3
M. Harper,67.5,,,113.4,,113.4,B,Raw,M,Open,Yes,4
P. McBride,67.5,,,104.33,,104.33,B,Raw,M,Open,Yes,5
D. Hardigree,67.5,,,97.52,,97.52,B,Raw,M,Open,Yes,6
J. Robertson,75,,,158.76,,158.76,B,Raw,M,Open,Yes,1
K. Hall,75,,,154.22,,154.22,B,Raw,M,Open,Yes,2
George Herring #1,75,,,149.69,,149.69,B,Raw,M,Open,Yes,3
Keith Thompson #5,75,,,142.88,,142.88,B,Raw,M,Open,Yes,4
Curtis Leslie,75,,,129.27,,129.27,B,Raw,M,Open,Yes,5
M. Bruce,75,,,115.67,,115.67,B,Raw,M,Open,Yes,6
J. Lennon,82.5,,,149.69,,149.69,B,Raw,M,Open,Yes,1
Carl Jones #2,82.5,,,142.88,,142.88,B,Raw,M,Open,Yes,2
J. Jeffers,82.5,,,142.88,,142.88,B,Raw,M,Open,Yes,3
Marc Jones,82.5,,,129.27,,129.27,B,Raw,M,Open,Yes,4
P. Scott,82.5,,,123.83,,123.83,B,Raw,M,Open,Yes,5
M. Kilpatrick,82.5,,,120.2,,120.2,B,Raw,M,Open,Yes,6
Wade Bowers,82.5,,,113.4,,113.4,B,Raw,M,Open,Yes,7
Garry Bradley,90,,,170.1,,170.1,B,Raw,M,Open,Yes,1
Leroy Willis,90,,,149.69,,149.69,B,Raw,M,Open,Yes,2
Bruce Washington,90,,,136.08,,136.08,B,Raw,M,Open,Yes,3
P. Andrews,90,,,122.47,,122.47,B,Raw,M,Open,Yes,4
R. Banks,100,,,174.63,,174.63,B,Raw,M,Open,Yes,1
Denis Ference,100,,,167.83,,167.83,B,Raw,M,Open,Yes,2
Ben Lockett,100,,,165.56,,165.56,B,Raw,M,Open,Yes,3
B. Bishop,100,,,163.29,,163.29,B,Raw,M,Open,Yes,4
D. Kemp,100,,,158.76,,158.76,B,Raw,M,Open,Yes,5
D. Gay,100,,,151.95,,151.95,B,Raw,M,Open,Yes,6
S. Johnson #7,110,,,172.37,,172.37,B,Raw,M,Open,Yes,1
EJ Kreis,110,,,163.29,,163.29,B,Raw,M,Open,Yes,2
J. McLeod,110,,,113.4,,113.4,B,Raw,M,Open,Yes,3
R. Jamason,125,,,122.47,,122.47,B,Raw,M,Open,Yes,1
T. Howell,125,,,108.86,,108.86,B,Raw,M,Open,Yes,2
J. Parrish #1,125,,,106.59,,106.59,B,Raw,M,Open,Yes,3
B. Nelson,125+,,,183.71,,183.71,B,Raw,M,Open,Yes,1
S. Brown,125+,,,149.69,,149.69,B,Raw,M,Open,Yes,2
J. Rouse,125+,,,140.61,,140.61,B,Raw,M,Open,Yes,3
