﻿BELGIUM DRUG FREE POWERLIFTING FEDERATION
BK. DEADLIFT EQUIPPED 2016
                                                                                                                              1é    2é       3é       4   points
1                                           - 47,5 KG Van Casteren    Hanne         V New Planet Fitness    17   T2   47,5    100   110      112,5        117,26
1                                           60 KG Dierckx             Liam          M   Planet Fitness      21   JR   58,5    170   175      -177,5       146,04
1                                           67,5 KG Van den Abbeele   Tim       M   Sanitas                 28   SR   66,9    160   180      -205,5       131,71
1                                           67,5 KG Boland            Darren    M   Sanitas                 40   M1   65,5    180   195                   145,47
1                                           75 KG Vandenbosch         Kevin         M   Planet Fitness      20   JR   72,8    190   -205     -205         129,30
1                                           75 KG Roels               Tom       M   Sanitas                 25   SR   68,7    130   142,5                 101,83
1                                           75 KG Hamerlinck          Gilbert       M Krachtsport Zelzate   75   M8   68,2    105   -112,5   -112,5       75,52
1                                           82,5 KG Coolen            Cedric    M   Sanitas                 17   T2   80,3    150   160      170          107,30
1                                           82,5 KG Walravens         Aster     M   Sanitas                 19   T3   75,8    160   200      210          138,39
2                                           82,5 KG Van Daele         Michael   M   Sanitas                 19   T3   77,8    130   145      165          106,61
3                                           82,5 KG Noori             Noor      M   KBBC                    18   T3   79,9    145   155      165          104,53
1                                           82,5 KG Sudarminto        Indra         M   Planet Fitness      25   SR   79,9    250   275      290          183,72
1                                           90 KG Annaert             Gregg         M   Planet Fitness      20   JR   87,7    195   210      -212,5       124,89
2                                           90 KG Declercq            Bram          M     Bills Gym         20   JR   83,5    150   175      195          119,77
1                                           90 KG De Clercq           Kenneth   M   Sanitas                 24   SR   87,3    150   170      -180         101,41
1                                           90 KG Verbeke             Beny      M   Isogym                  50   M3   89,5    255   275      292,5        171,79
1                                           100 KG Van Den Schilden   Stefan        M    Planet Fitnes      31   SR   94,6    175   185      205          116,67
1                                           100 KG Vermote            Gianni    M   Isogym                  43   M1   98,8    210   225      -230         125,33
1                                           110 KG Janssens           Roel          M   Planet Fitness      27   SR   100,9   225   240      245          135,22
1                                           110 KG Gheldof            Marcel    M   Sanitas                 50   M3   107,6   180   200      217,5        117,36
1                                           125 KG Kartal             Kadir     M   Sanitas                 19   T3   114,4   175   -197,5   -200         93,08
1                                           125 KG Van Haute          André         M New Planet Fitness    43   M1   119,0   160   175      185          97,66
Nat Record
Best Lifter
13 feb 2016 Merksem
