Place,Sex,Name,CyrillicName,BodyweightKg,Squat1Kg,Squat2Kg,Squat3Kg,Best3SquatKg,Squat4Kg,Bench1Kg,Bench2Kg,Bench3Kg,Best3BenchKg,Bench4Kg,Deadlift1Kg,Deadlift2Kg,Deadlift3Kg,Best3DeadliftKg,Deadlift4Kg,TotalKg,WeightClassKg,Event,Equipment,Tested,Division,Age,BirthDate
1,F,Viktoriya Petrushkina,Виктория Петрушкина,50.9,65,70,-75,70,,45,47.5,50,50,,82.5,-87.5,87.5,87.5,,207.5,52,SBD,Raw,Yes,Teen 13-15,15,2006-04-26
2,F,Angelina Gulyaeva,Ангелина Гуляева,51.6,65,-72.5,-72.5,65,,30,35,-40,35,,70,77.5,82.5,82.5,,182.5,52,SBD,Raw,Yes,Teen 16-17,16,2004-12-12
1,F,Mariya Mednikova,Мария Медникова,51,-65,-65,65,65,,47.5,50,-52.5,50,,75,80,-85,80,,195,52,SBD,Raw,Yes,Open,29,1992-04-13
1,M,Danila Sokolov #1,Данила Соколов,71.2,160,-165,-165,160,,77.5,82.5,-85,82.5,,140,147.5,152.5,152.5,,395,75,SBD,Raw,Yes,Teen 13-15,14,2007-03-08
1,M,Dmitriy Strokin,Дмитрий Строкин,88.5,180,190,-200,190,,132.5,140,-147.5,140,,230,240,-250,240,,570,90,SBD,Raw,Yes,Open,30,1991-05-30
1,M,Igor Zubarev #2,Игорь Зубарев,86.3,125,135,-142.5,135,,85,90,-95,90,,150,-155,-155,150,,375,90,SBD,Raw,Yes,Masters 40-44,41,1980-01-21
1,M,Sergey Barva,Сергей Барва,102.5,190,-200,-200,190,,110,-115,-115,110,,210,225,-230,225,,525,110,SBD,Raw,Yes,Masters 40-44,44,1976-07-25
1,M,Yuliya Shekurova,Юлия Шекурова,68.9,60,-70,70,70,,45,52.5,55,55,,80,90,-100,90,,215,75,SBD,Raw,No,Open,22,1998-09-17
1,M,Aleksandr Borisov,Александр Борисов,88.7,225,230,235,235,,165,-170,170,170,,250,-255,-255,250,,655,90,SBD,Raw,No,Open,24,1997-06-03
1,M,Aleksey Abramov,Алексей Абрамов,96.8,160,180,-190,180,,120,130,135,135,,180,200,215,215,,530,100,SBD,Raw,No,Masters 45-49,47,1974-02-07
1,M,Eldar Salakhetdinov,Эльдар Салахетдинов,108.1,250,262.5,267.5,267.5,,180,190,192.5,192.5,,310,325,330,330,,790,110,SBD,Raw,No,Open,22,1998-08-22
2,M,Aleksandr Voronin,Александр Воронин,107.1,200,210,-220,210,,145,152.5,157.5,157.5,,225,240,255,255,,622.5,110,SBD,Raw,No,Open,26,1995-03-26
1,M,Ilya Akhmatov,Илья Ахматов,72.9,140,147.5,-160,147.5,,70,75,-82.5,75,,155,160,165,165,,387.5,75,SBD,Wraps,Yes,Teen 16-17,17,2004-06-27
1,M,Georgiy Mashurov,Георгий Машуров,80.8,120,140,-160,140,,90,100,-110,100,,150,170,185,185,,425,82.5,SBD,Wraps,No,Open,38,1982-11-05
1,M,Mikhail Solovev,Михаил Соловьев,106.8,250,260,265,265,,180,190,-195,190,,250,265,270,270,,725,110,SBD,Wraps,No,Masters 40-44,44,1976-09-15
1,M,Evgeniy Bugrov,Евгений Бугров,123.5,230,250,-265,250,,160,170,-175,170,,220,240,,240,,660,125,SBD,Wraps,No,Masters 45-49,45,1976-05-30
1,F,Yuliya Kokurina,Юлия Кокурина,49.8,,,,,,57.5,60,62.5,62.5,,-122.5,122.5,-135,122.5,,185,52,BD,Raw,Yes,Open,39,1982-04-29
1,M,Ivan Pirogov,Иван Пирогов,70.9,,,,,,110,117.5,122.5,122.5,,180,190,-202.5,190,,312.5,75,BD,Raw,Yes,Open,24,1996-08-17
2,M,Vladimir Borovkov,Владимир Боровков,71.5,,,,,,90,100,105,105,,160,170,-180,170,,275,75,BD,Raw,Yes,Open,28,1992-11-13
1,M,Artem Ostapenko,Артем Остапенко,78.7,,,,,,110,117.5,120,120,,-185,195,202.5,202.5,,322.5,82.5,BD,Raw,Yes,Open,29,1992-03-03
1,M,Fedor Khrestin,Федор Хрестин,99,,,,,,145,-150,-150,145,,200,207.5,-210,207.5,,352.5,100,BD,Raw,Yes,Open,37,1984-07-14
1,F,Irina Barantseva,Ирина Баранцева,71.7,,,,,,37.5,-40,-40,37.5,,80,87.5,95,95,,132.5,75,BD,Raw,No,Open,32,1989-04-15
1,M,Mikhail Barantsev,Михаил Баранцев,81,,,,,,75,77.5,82.5,82.5,,125,-132.5,-132.5,125,,207.5,82.5,BD,Raw,No,Open,36,1984-10-07
1,M,Georgiy Mashurov,Георгий Машуров,80.8,,,,,,90,100,-110,100,,150,170,185,185,,285,82.5,BD,Raw,No,Open,38,1982-11-05
1,F,Natalya Kupryushina,Наталья Купрюшина,45.3,,,,,,37.5,40,42.5,42.5,,,,,,,42.5,48,B,Raw,Yes,Masters 45-49,49,1972-05-15
1,F,Viktoriya Petrushkina,Виктория Петрушкина,50.9,,,,,,45,47.5,50,50,,,,,,,50,52,B,Raw,Yes,Teen 13-15,15,2006-04-26
1,F,Yuliya Kokurina,Юлия Кокурина,49.8,,,,,,57.5,60,62.5,62.5,,,,,,,62.5,52,B,Raw,Yes,Open,39,1982-04-29
2,F,Mariya Mednikova,Мария Медникова,51,,,,,,47.5,50,-52.5,50,,,,,,,50,52,B,Raw,Yes,Open,29,1992-04-13
1,M,Andrey Kupryushin,Андрей Купрюшин,54.6,,,,,,80,90,92.5,92.5,,,,,,,92.5,56,B,Raw,Yes,Open,24,1997-05-17
1,M,Egor Lunin,Егор Лунин,74.3,,,,,,110,117.5,-120,117.5,,,,,,,117.5,75,B,Raw,Yes,Teen 18-19,18,2003-03-23
1,M,Andrey Shirunov,Андрей Ширунов,73.6,,,,,,130,-135,-135,130,,,,,,,130,75,B,Raw,Yes,Juniors 20-23,23,1998-05-21
1,M,Aleksandr Seleznev,Александр Селезнев,72.5,,,,,,-147.5,147.5,155,155,,,,,,,155,75,B,Raw,Yes,Open,46,1975-05-18
2,M,Yaroslav Gubchenko,Ярослав Губченко,74.4,,,,,,127.5,135,-140,135,,,,,,,135,75,B,Raw,Yes,Open,36,1984-11-20
3,M,Vyacheslav Shishov,Вячеслав Шишов,73.1,,,,,,115,117.5,120,120,,,,,,,120,75,B,Raw,Yes,Open,36,1984-12-10
1,M,Aleksey Gusev,Алексей Гусев,70,,,,,,110,115,117.5,117.5,,,,,,,117.5,75,B,Raw,Yes,Masters 40-44,40,1981-02-27
1,M,Sergey Zhukov,Сергей Жуков,81,,,,,,120,127.5,135,135,,,,,,,135,82.5,B,Raw,Yes,Open,40,1981-07-11
1,M,Vadim Bulychyov,Вадим Булычёв,81.6,,,,,,135,-140,-140,135,,,,,,,135,82.5,B,Raw,Yes,Masters 45-49,47,1973-10-10
1,M,Sergey Shirunov,Сергей Ширунов,88.7,,,,,,145,152.5,-155,152.5,,,,,,,152.5,90,B,Raw,Yes,Open,31,1989-09-04
2,M,Nikolay Sokolov #7,Николай Соколов,87.5,,,,,,135,145,-152.5,145,,,,,,,145,90,B,Raw,Yes,Open,38,1983-01-26
3,M,Nikolay Litov,Николай Литов,86.1,,,,,,125,-127.5,-127.5,125,,,,,,,125,90,B,Raw,Yes,Open,27,1994-05-14
1,M,Aleksey Nikulin #7,Алексей Никулин,88.8,,,,,,-125,125,-132.5,125,,,,,,,125,90,B,Raw,Yes,Masters 45-49,45,1976-01-22
1,M,Roman Yurov,Роман Юров,96.4,,,,,,185,195,-200,195,,,,,,,195,100,B,Raw,Yes,Open,35,1985-08-07
2,M,Andrey Deryabin,Андрей Дерябин,99.3,,,,,,177.5,-185,-185,177.5,,,,,,,177.5,100,B,Raw,Yes,Open,26,1994-10-07
1,M,Sergey Timin,Сергей Тимин,114.6,,,,,,185,-190,-190,185,,,,,,,185,125,B,Raw,Yes,Open,30,1991-05-19
2,M,Aleksey Fevralev,Алексей Февралев,115.5,,,,,,145,152.5,157.5,157.5,,,,,,,157.5,125,B,Raw,Yes,Open,36,1985-02-17
1,M,Maksim Shpagin,Максим Шпагин,122.8,,,,,,180,187.5,190,190,,,,,,,190,125,B,Raw,Yes,Masters 40-44,42,1979-01-04
1,F,Mariya Tyukina,Мария Тюкина,71,,,,,,40,45,-47.5,45,,,,,,,45,75,B,Raw,No,Open,32,1989-05-29
1,M,Vitaliy Zhukov,Виталий Жуков,66,,,,,,-75,-75,75,75,,,,,,,75,67.5,B,Raw,No,Teen 13-15,15,2006-03-21
1,M,Artyom Limarenko,Артём Лимаренко,74.5,,,,,,75,80,82.5,82.5,,,,,,,82.5,75,B,Raw,No,Open,39,1982-06-20
1,M,Dmitriy Zhulin,Дмитрий Жулин,81.4,,,,,,150,-157.5,-165,150,,,,,,,150,82.5,B,Raw,No,Open,36,1985-06-13
1,M,Aleksandr Lapshin,Александр Лапшин,98.1,,,,,,170,-175,-175,170,,,,,,,170,100,B,Raw,No,Open,45,1976-07-14
1,M,Aleksandr Lapshin,Александр Лапшин,98.1,,,,,,170,-175,-175,170,,,,,,,170,100,B,Raw,No,Masters 45-49,45,1976-07-14
1,M,Aleksandr Sidorov,Александр Сидоров,131,,,,,,230,240,245,245,,,,,,,245,140,B,Raw,No,Open,40,1980-07-20
1,M,Gennadiy Golovkin,Геннадий Головкин,90,,,,,,160,-175,-175,160,,,,,,,160,90,B,Single-ply,Yes,Open,36,1985-02-27
1,M,Sergey Bolshakov,Сергей Большаков,114,,,,,,250,260,-270,260,,,,,,,260,125,B,Single-ply,No,Open,30,1991-05-06
1,F,Nadezhda Aprelova,Надежда Апрелова,50.6,,,,,,-80,80,-87.5,80,,,,,,,80,52,B,Unlimited,Yes,Open,57,1963-07-24
1,F,Nadezhda Aprelova,Надежда Апрелова,50.6,,,,,,-80,80,-87.5,80,,,,,,,80,52,B,Unlimited,Yes,Masters 55-59,57,1963-07-24
1,M,Igor Koptelov,Игорь Коптелов,87.6,,,,,,200,-210,210,210,,,,,,,210,90,B,Unlimited,Yes,Masters 45-49,48,1973-01-29
1,F,Yuliya Kokurina,Юлия Кокурина,49.8,,,,,,,,,,,-122.5,122.5,-135,122.5,,122.5,52,D,Raw,Yes,Open,39,1982-04-29
1,F,Olga Moksina,Ольга Моксина,54.9,,,,,,,,,,,125,130,135,135,,135,56,D,Raw,Yes,Open,38,1982-07-30
2,F,Evgeniya Shakhunts,Евгения Шахунц,54.2,,,,,,,,,,,120,127.5,-130,127.5,,127.5,56,D,Raw,Yes,Open,29,1992-04-14
3,F,Olga Tselikova,Ольга Целикова,54.3,,,,,,,,,,,-107.5,107.5,112.5,112.5,,112.5,56,D,Raw,Yes,Open,36,1985-01-27
1,F,Antonina Shigapova,Антонина Шигапова,56.6,,,,,,,,,,,115,117.5,-120,117.5,,117.5,60,D,Raw,Yes,Open,33,1988-04-05
1,F,Oksana Surtaeva,Оксана Суртаева,59.7,,,,,,,,,,,90,105,-115,105,,105,60,D,Raw,Yes,Masters 40-44,44,1977-03-10
1,F,Svetlana Kraynova,Светлана Крайнова,66.5,,,,,,,,,,,125,135,-140,135,,135,67.5,D,Raw,Yes,Open,28,1993-03-30
1,M,Dmitriy Lantsov,Дмитрий Ланцов,72.8,,,,,,,,,,,195,-207.5,-207.5,195,,195,75,D,Raw,Yes,Open,33,1988-05-15
1,M,Alim Khamizov,Алим Хамизов,85.7,,,,,,,,,,,210,220,230,230,,230,90,D,Raw,Yes,Open,25,1996-06-26
2,M,Evgeniy Kiselev,Евгений Киселев,85.9,,,,,,,,,,,210,-225,-225,210,,210,90,D,Raw,Yes,Open,32,1988-08-23
1,M,Kirill Shkuratov,Кирилл Шкуратов,94.9,,,,,,,,,,,230,-240,-240,230,,230,100,D,Raw,Yes,Open,41,1979-08-28
2,M,Fedor Khrestin,Федор Хрестин,99,,,,,,,,,,,200,207.5,-210,207.5,,207.5,100,D,Raw,Yes,Open,37,1984-07-14
1,M,Aleksandr Novitskiy,Александр Новицкий,107,,,,,,,,,,,190,-200,-200,190,,190,110,D,Raw,Yes,Open,32,1989-02-15
1,F,Irina Barantseva,Ирина Баранцева,71.7,,,,,,,,,,,80,87.5,95,95,,95,75,D,Raw,No,Open,32,1989-04-15
1,F,Yuliya Kozlova,Юлия Козлова,73,,,,,,,,,,,105,-115,-115,105,,105,75,D,Raw,No,Masters 45-49,46,1974-08-10
1,F,Tatyana Kanygina,Татьяна Каныгина,75.7,,,,,,,,,,,100,110,120,120,,120,82.5,D,Raw,No,Masters 55-59,57,1963-12-01
1,M,Dmitriy Kayakin,Дмитрий Каякин,67.7,,,,,,,,,,,-210,210,-220,210,,210,75,D,Raw,No,Juniors 20-23,20,2000-08-09
1,M,Mikhail Barantsev,Михаил Баранцев,81,,,,,,,,,,,125,-132.5,-132.5,125,,125,82.5,D,Raw,No,Open,36,1984-10-07
1,M,Vladimir Esaulov,Владимир Эсаулов,87.7,,,,,,,,,,,-185,-185,185,185,,185,90,D,Raw,No,Masters 60-64,60,1960-07-22
2,M,Evgeniy Karpov,Евгений Карпов,88.3,,,,,,,,,,,135,145,150,150,,150,90,D,Raw,No,Masters 60-64,64,1956-07-18
1,M,Valeriy Romanov,Валерий Романов,94.2,,,,,,,,,,,150,-160,,150,,150,100,D,Raw,No,Masters 60-64,61,1960-02-15
1,M,Eldar Salakhetdinov,Эльдар Салахетдинов,108.1,,,,,,,,,,,310,325,330,330,,330,110,D,Raw,No,Open,22,1998-08-22
1,F,Elena Kazarina,Елена Казарина,66.5,,,,,,,,,,,157.5,170,177.5,177.5,,177.5,67.5,D,Single-ply,No,Masters 40-44,40,1980-10-14
