Division,WeightClassKg,Place,Name,Team,BodyweightKg,Best3SquatKg,Best3BenchKg,Best3DeadliftKg,TotalKg,Equipment,Event,Sex
Boys,51.71,1,Miguel Puente,PSJA Southwest,51.07,136.08,72.57,138.35,347,Single-ply,SBD,M
Boys,51.71,2,Jan Ramirez,PSJA North,50.71,113.4,61.23,99.79,274.42,Single-ply,SBD,M
Boys,55.79,1,Joshua Morin,PSJA North,55.7,174.63,124.74,183.7,483.08,Single-ply,SBD,M
Boys,55.79,2,Aj Medina,PSJA,55.43,133.81,77.11,142.88,353.8,Single-ply,SBD,M
Boys,55.79,3,Fred Mares,Edinburg,54.7,113.4,81.65,140.61,335.66,Single-ply,SBD,M
Boys,55.79,4,Jaryo Amaro,PSJA Memorial,54.61,127.01,61.23,133.81,322.05,Single-ply,SBD,M
Boys,55.79,DQ,Justin Bernor,Edinburg North,55.16,,,,,Single-ply,SBD,M
Boys,59.87,1,Jackson Littles,PSJA North,59.78,174.63,83.91,174.63,433.18,Single-ply,SBD,M
Boys,59.87,2,Kevin Marroquin,PSJA Southwest,59.87,158.76,74.84,183.7,417.3,Single-ply,SBD,M
Boys,59.87,DQ,Salokin Yanez,Edinburg Vela,58.6,149.69,,,,Single-ply,SBD,M
Boys,67.13,1,Frank Estrada,PSJA Memorial,66.04,235.87,127.01,201.85,564.72,Single-ply,SBD,M
Boys,67.13,2,Joel Casa,PSJA,63.05,181.44,115.67,181.44,478.54,Single-ply,SBD,M
Boys,67.13,3,Ozzy Garza,PSJA Southwest,66.41,167.83,117.93,172.37,458.13,Single-ply,SBD,M
Boys,67.13,4,Jacob Reyes,Edinburg Vela,63.87,163.29,111.13,167.83,442.25,Single-ply,SBD,M
Boys,67.13,5,Robert Gomez,PSJA Memorial,67.13,149.69,102.06,138.35,390.09,Single-ply,SBD,M
Boys,67.13,DQ,Oscar Rivera,Edinburg North,66.86,167.83,104.33,,,Single-ply,SBD,M
Boys,67.13,DQ,Tony Sauceda,Edinburg Economedes,60.15,208.65,,,,Single-ply,SBD,M
Boys,74.84,1,Julio Bautista,Edinburg Economedes,70.49,201.85,113.4,201.85,517.1,Single-ply,SBD,M
Boys,74.84,2,Eddie Miyica,Edinburg,74.48,188.24,122.47,204.12,514.83,Single-ply,SBD,M
Boys,74.84,3,Juan Elizondo,PSJA North,74.84,183.7,136.08,195.04,514.83,Single-ply,SBD,M
Boys,74.84,4,Andrew Solis,Edinburg Vela,74.84,183.7,136.08,195.04,514.83,Single-ply,SBD,M
Boys,74.84,5,Alejandro Cortez,Edinburg North,74.84,188.24,104.33,215.46,508.02,Single-ply,SBD,M
Boys,74.84,6,Armando Ramirez,Edinburg North,71.85,183.7,111.13,208.65,503.49,Single-ply,SBD,M
Boys,74.84,7,Chris Pasual,Edinburg Economedes,69.13,192.78,113.4,195.04,501.22,Single-ply,SBD,M
Boys,74.84,8,Daniel Edwards,PSJA North,74.75,183.7,113.4,167.83,464.93,Single-ply,SBD,M
Boys,74.84,9,Michael Garcia,Edinburg Vela,70.03,151.95,104.33,151.95,408.23,Single-ply,SBD,M
Boys,74.84,10,David Quintanilla,PSJA Memorial,71.85,129.27,65.77,142.88,337.93,Single-ply,SBD,M
Boys,74.84,11,Alex Navarro,PSJA Southwest,73.03,124.74,58.97,136.08,319.78,Single-ply,SBD,M
Boys,82.1,1,Behiran Calderini,Edinburg North,81.47,238.14,136.08,233.6,607.81,Single-ply,SBD,M
Boys,82.1,2,Alex Zuniga,Edinburg Economedes,78.29,226.8,115.67,190.51,532.97,Single-ply,SBD,M
Boys,82.1,3,Juan Contreras,Edinburg Economedes,76.66,197.31,127.01,206.38,530.7,Single-ply,SBD,M
Boys,82.1,4,Alter Arenas,PSJA North,81.83,210.92,113.4,206.38,530.7,Single-ply,SBD,M
Boys,82.1,5,Sam Perez,Edinburg Vela,77.29,199.58,136.08,183.7,519.36,Single-ply,SBD,M
Boys,82.1,6,Nicolas Flores,Edinburg North,81.74,183.7,104.33,210.92,498.95,Single-ply,SBD,M
Boys,82.1,7,Miguel Garza,PSJA Southwest,79.65,147.42,83.91,158.76,390.09,Single-ply,SBD,M
Boys,89.81,1,Rene Cantu,Edinburg Vela,89.81,258.55,142.88,222.26,623.69,Single-ply,SBD,M
Boys,89.81,2,Aaron Alvarez,PSJA North,87.54,247.21,133.81,231.33,612.35,Single-ply,SBD,M
Boys,89.81,3,Arturo Pena,Edinburg Vela,88.63,240.4,149.69,215.46,605.55,Single-ply,SBD,M
Boys,89.81,4,Eddie Hinojosa,Edinburg Vela,85.64,229.06,133.81,222.26,585.13,Single-ply,SBD,M
Boys,89.81,5,Brian Garcia,Edinburg North,87.45,208.65,147.42,208.65,564.72,Single-ply,SBD,M
Boys,89.81,6,Roger Juarez,PSJA,85.55,215.46,151.95,195.04,562.45,Single-ply,SBD,M
Boys,89.81,7,Humberto Martinez,Edinburg North,89.81,204.12,124.74,210.92,539.77,Single-ply,SBD,M
Boys,89.81,8,Ricky de Leon,Edinburg Economedes,88.54,201.85,127.01,208.65,537.51,Single-ply,SBD,M
Boys,89.81,9,Andrew Valdez,PSJA North,87.63,215.46,104.33,183.7,503.49,Single-ply,SBD,M
Boys,89.81,10,Luis Mireles,PSJA Memorial,89.54,183.7,102.06,170.1,455.86,Single-ply,SBD,M
Boys,89.81,11,Gilbert Cerda,Edinburg Vela,89.81,172.37,106.59,142.88,421.84,Single-ply,SBD,M
Boys,89.81,12,Cj Chasco,Edinburg Vela,84.55,156.49,106.59,151.95,415.04,Single-ply,SBD,M
Boys,99.79,1,Juan Flores,PSJA,97.07,272.16,176.9,231.33,680.39,Single-ply,SBD,M
Boys,99.79,2,Ryan Reyna,PSJA North,98.25,256.28,147.42,235.87,639.57,Single-ply,SBD,M
Boys,99.79,3,Joey Castillo,PSJA Southwest,99.06,256.28,156.49,226.8,639.57,Single-ply,SBD,M
Boys,99.79,4,Cris Maldonado,Edinburg Economedes,91.99,244.94,145.15,226.8,616.89,Single-ply,SBD,M
Boys,99.79,5,Mario Reyna,Edinburg Economedes,99.79,233.6,149.69,222.26,605.55,Single-ply,SBD,M
Boys,99.79,6,Elias Moreno,PSJA,93.17,244.94,158.76,197.31,601.01,Single-ply,SBD,M
Boys,99.79,7,Frank Coronado,Edinburg,95.98,210.92,136.08,226.8,573.79,Single-ply,SBD,M
Boys,99.79,8,Matthew Alaro,Edinburg Economedes,99.7,208.65,124.74,199.58,532.97,Single-ply,SBD,M
Boys,99.79,9,Ricardo Saenz,PSJA,95.98,208.65,124.74,181.44,514.83,Single-ply,SBD,M
Boys,99.79,10,Juan Mendoza #4,Edinburg,93.98,204.12,120.2,167.83,492.15,Single-ply,SBD,M
Boys,109.77,1,Caleb Zerrato,PSJA Memorial,109.77,272.16,147.42,231.33,650.91,Single-ply,SBD,M
Boys,109.77,2,Lazaro Patlan,Edinburg,102.33,265.35,154.22,224.53,644.1,Single-ply,SBD,M
Boys,109.77,3,Conrado Valladares,PSJA North,103.87,242.67,154.22,235.87,632.76,Single-ply,SBD,M
Boys,109.77,4,Bryan Mosqueda,PSJA Southwest,106.32,235.87,163.29,229.06,628.23,Single-ply,SBD,M
Boys,109.77,5,JJ Barrientes,PSJA,108.77,226.8,142.88,208.65,578.33,Single-ply,SBD,M
Boys,109.77,6,Shayne Hernandez,Edinburg,108.32,215.46,133.81,210.92,560.19,Single-ply,SBD,M
Boys,109.77,7,Jacob Lopez,PSJA,108.41,204.12,142.88,195.04,542.04,Single-ply,SBD,M
Boys,109.77,8,Michael Anzaldua,Edinburg North,106.59,201.85,127.01,204.12,532.97,Single-ply,SBD,M
Boys,109.77,9,Gio Barajas,PSJA Southwest,109.68,222.26,120.2,183.7,526.17,Single-ply,SBD,M
Boys,109.77,10,Darrian Olazarron,PSJA Southwest,101.7,213.19,120.2,165.56,498.95,Single-ply,SBD,M
Boys,109.77,11,Moy Vazaldua,PSJA,103.33,195.04,106.59,183.7,485.34,Single-ply,SBD,M
Boys,109.77,DQ,Marcos Garza,Edinburg Economedes,104.96,,,,,Single-ply,SBD,M
Boys,124.74,1,Oscar Juarez,Edinburg,110.31,283.5,188.24,233.6,705.34,Single-ply,SBD,M
Boys,124.74,2,Leeroy Carrizales,PSJA Memorial,124.01,272.16,136.08,226.8,635.03,Single-ply,SBD,M
Boys,124.74,3,Caleb Longoria,PSJA Southwest,111.67,231.33,142.88,217.72,591.94,Single-ply,SBD,M
Boys,124.74,4,David Garza,Edinburg Vela,118.39,217.72,136.08,229.06,582.87,Single-ply,SBD,M
Boys,124.74,5,Louie Rodriguez,Edinburg,119.2,224.53,138.35,208.65,571.53,Single-ply,SBD,M
Boys,124.74,6,Luis Trevino,Edinburg,111.13,231.33,133.81,199.58,564.72,Single-ply,SBD,M
Boys,124.74,7,Kevin Lopez,PSJA Memorial,115.39,174.63,120.2,154.22,449.06,Single-ply,SBD,M
Boys,124.74+,1,Jose Nelson Carrillo,Edinburg,128.37,272.16,156.49,226.8,655.44,Single-ply,SBD,M
Boys,124.74+,2,Jose Tovar,PSJA Memorial,130.82,258.55,192.78,204.12,655.44,Single-ply,SBD,M
Boys,124.74+,3,Josue Vaquera,PSJA Memorial,150.23,260.82,149.69,222.26,632.76,Single-ply,SBD,M
Boys,124.74+,4,Valentin Lopez,PSJA Memorial,150.59,299.37,151.95,179.17,630.49,Single-ply,SBD,M
Boys,124.74+,5,David Chapa,PSJA,141.88,265.35,140.61,215.46,621.42,Single-ply,SBD,M
Boys,124.74+,6,Joel Iracheta,PSJA North,142.88,231.33,142.88,217.72,591.94,Single-ply,SBD,M
Boys,124.74+,7,Ruben Arreola,Edinburg North,125.65,231.33,147.42,181.44,560.19,Single-ply,SBD,M
Boys,124.74+,8,Justin Delgado,PSJA Memorial,125.74,181.44,120.2,176.9,478.54,Single-ply,SBD,M
Boys,124.74+,DQ,Justin Medina,Edinburg Economedes,155.58,,,,,Single-ply,SBD,M
