Division,WeightClassKg,Place,Name,Team,BodyweightKg,Best3SquatKg,Best3BenchKg,Best3DeadliftKg,TotalKg,Equipment,Event,Sex
Boys,51.71,1,Marc Jaquez,Uvalde,50.94,138.35,63.5,145.15,347,Single-ply,SBD,M
Boys,55.79,1,EJ Chavez,Uvalde,54.93,83.91,52.16,102.06,238.14,Single-ply,SBD,M
Boys,59.87,1,Matthew Hughes #1,Del Rio,59.6,156.49,106.59,167.83,430.91,Single-ply,SBD,M
Boys,59.87,2,Christian Campos,Uvalde,56.88,136.08,74.84,149.69,360.61,Single-ply,SBD,M
Boys,59.87,3,Joe Reyes,La Pryor,57.79,122.47,90.72,129.27,342.46,Single-ply,SBD,M
Boys,59.87,4,Aaron Urrutia,Del Rio,59.87,111.13,81.65,145.15,337.93,Single-ply,SBD,M
Boys,67.13,1,Richard Munoz,Carrizo Springs,63.78,142.88,92.99,147.42,383.29,Single-ply,SBD,M
Boys,67.13,2,Abraham Davila,Uvalde,66.72,147.42,77.11,156.49,381.02,Single-ply,SBD,M
Boys,67.13,3,Luke Bradshaw,Dilley,66.77,127.01,58.97,156.49,342.46,Single-ply,SBD,M
Boys,67.13,4,Buddy Santos,Dilley,61.69,147.42,70.31,122.47,340.19,Single-ply,SBD,M
Boys,67.13,5,Jose Ureutta,Carrizo Springs,64.14,83.91,61.23,131.54,276.69,Single-ply,SBD,M
Boys,74.84,1,Nick Rodriguez #1,Dilley,74.84,195.04,127.01,197.31,519.36,Single-ply,SBD,M
Boys,74.84,2,Ezra Ramirez,Dilley,73.21,179.17,83.91,163.29,426.38,Single-ply,SBD,M
Boys,74.84,3,Ricardo Lopez,La Pryor,70.4,151.95,86.18,158.76,396.89,Single-ply,SBD,M
Boys,74.84,4,Daniel Almedia,Uvalde,69.85,104.33,79.38,179.17,362.87,Single-ply,SBD,M
Boys,74.84,5,Joey Trujillo,Carrizo Springs,71.3,106.59,70.31,129.27,306.17,Single-ply,SBD,M
Boys,74.84,DQ,Adrian de la Rosa,Dilley,69.49,136.08,90.72,,,Single-ply,SBD,M
Boys,82.1,1,Alejandro Flores,Del Rio,80.74,204.12,129.27,215.46,548.85,Single-ply,SBD,M
Boys,82.1,2,Gavin Vara,Uvalde,78.29,185.97,95.25,206.38,487.61,Single-ply,SBD,M
Boys,82.1,3,Josiah Carrizales,Uvalde,79.38,165.56,106.59,201.85,474,Single-ply,SBD,M
Boys,82.1,4,Richie Perez,La Pryor,81.37,176.9,102.06,170.1,449.06,Single-ply,SBD,M
Boys,82.1,5,Marcos Cruz,Carrizo Springs,81.92,181.44,83.91,165.56,430.91,Single-ply,SBD,M
Boys,82.1,DQ,Ricky Gonzalez,Del Rio,82.01,,,,,Single-ply,SBD,M
Boys,89.81,1,Luis Perales,Carrizo Springs,88.54,247.21,195.04,235.87,678.12,Single-ply,SBD,M
Boys,89.81,2,Daniel Sambrano,La Pryor,86.27,174.63,106.59,183.7,464.93,Single-ply,SBD,M
Boys,89.81,3,George Garza,Uvalde,89.68,142.88,74.84,167.83,385.55,Single-ply,SBD,M
Boys,99.79,1,Manny Arguijo,Del Rio,90.08,251.74,151.95,226.8,630.49,Single-ply,SBD,M
Boys,99.79,2,Marty Trevino,Dilley,92.99,224.53,136.08,229.06,589.67,Single-ply,SBD,M
Boys,99.79,3,Mario Mendoza,Carrizo Springs,96.8,215.46,136.08,229.06,580.6,Single-ply,SBD,M
Boys,99.79,4,Eligah H Cortez,Uvalde,98.88,226.8,111.13,195.04,532.97,Single-ply,SBD,M
Boys,99.79,5,David Castro,Carrizo Springs,96.16,165.56,131.54,142.88,439.98,Single-ply,SBD,M
Boys,99.79,6,Cesar Mendiola,Uvalde,92.53,158.76,77.11,167.83,403.7,Single-ply,SBD,M
Boys,99.79,7,James Vasquez,La Pryor,94.44,142.88,72.57,120.2,335.66,Single-ply,SBD,M
Boys,109.77,1,Jose Mendoza #1,Del Rio,107.32,260.82,154.22,224.53,639.57,Single-ply,SBD,M
Boys,109.77,2,Dizan Rodriguez,Del Rio,102.24,215.46,149.69,208.65,573.79,Single-ply,SBD,M
Boys,109.77,3,Matthew Williams #3,Uvalde,104.69,235.87,127.01,210.92,573.79,Single-ply,SBD,M
Boys,109.77,4,Patricio Medina,Uvalde,107.41,226.8,113.4,215.46,555.65,Single-ply,SBD,M
Boys,109.77,5,Daniel Garza,Carrizo Springs,103.06,156.49,108.86,165.56,430.91,Single-ply,SBD,M
Boys,109.77,6,Abraham Rosas,Del Rio,105.87,142.88,97.52,188.24,428.64,Single-ply,SBD,M
Boys,109.77,7,Colton Reddick,Carrizo Springs,107.32,133.81,65.77,147.42,347,Single-ply,SBD,M
Boys,124.74,1,Dustin Dominguez,Dilley,122.29,276.69,142.88,219.99,639.57,Single-ply,SBD,M
Boys,124.74,2,Christian Lopez #7,La Pryor,119.57,249.48,136.08,226.8,612.35,Single-ply,SBD,M
Boys,124.74,3,Brandon Orosco,Carrizo Springs,119.93,240.4,133.81,208.65,582.87,Single-ply,SBD,M
Boys,124.74,4,Sammy Lara,Uvalde,112.49,195.04,133.81,201.85,530.7,Single-ply,SBD,M
Boys,124.74,5,Majik DeLaGarza,Uvalde,124.28,165.56,97.52,181.44,444.52,Single-ply,SBD,M
Boys,124.74,6,Gabriel Agurrie,Del Rio,111.95,138.35,61.23,165.56,365.14,Single-ply,SBD,M
Boys,124.74+,1,Joseph Rodriguez,Del Rio,162.48,233.6,161.03,247.21,641.83,Single-ply,SBD,M
Boys,124.74+,2,Gerry Gonzalez,Del Rio,126.37,165.56,90.72,192.78,449.06,Single-ply,SBD,M
