Place,Sex,Name,Event,Division,WeightClassKg,Equipment,Team,State,BodyweightKg,Squat1Kg,Squat2Kg,Squat3Kg,Best3SquatKg,Bench1Kg,Bench2Kg,Bench3Kg,Best3BenchKg,Deadlift1Kg,Deadlift2Kg,Deadlift3Kg,Best3DeadliftKg,TotalKg,BirthYear,BirthDate
1,M,Al Roth,B,M-O,93,Single-ply,BAY,CT,91.8,,,,,180,190,195,195,,,,,195,1993,
DQ,M,Chuck Berthiaume,B,MR-M,83,Raw,UNA,RI,83,,,,,-135,-135,-135,,,,,,,1957,
DQ,M,Justin Poitras,B,MR-O,83,Raw,UNA,MA,82.4,,,,,-150,-157.5,-157.5,,,,,,,1986,
DQ,M,Chuck Berthiaume,B,MR-O,83,Raw,UNA,RI,83,,,,,-135,-135,-135,,,,,,,1957,
1,M,Jack Consiglio,B,MR-O,105,Raw,UNA,CT,101.6,,,,,122.5,-130,130,130,,,,,130,1994,
1,M,Londell Pina,B,MR-O,120+,Raw,TCP,MA,185.8,,,,,-220,227.5,-235,227.5,,,,,227.5,1988,
1,M,Frank Juszynski,SBD,M-O,105,Single-ply,UNA,MA,95.6,187.5,195,-200,195,125,130,-135,130,230,-240,,230,555,1970,
1,M,Christopher Vickery,SBD,M-O,120,Single-ply,BAY,MA,111.8,337.5,365,,365,265,-280,-280,265,255,277.5,-300,277.5,907.5,1991,
G,M,James English,SBD,MR-G,74,Raw,UNA,MA,71.2,162.5,175,-187.5,175,110,-120,122.5,122.5,205,230,-237.5,230,527.5,1999,1999-08-27
1,M,Brett Sullivan,SBD,MR-HS,59,Raw,SJP,MA,56.2,55,65,-70,65,35,40,-47.5,40,85,95,105,105,210,1972,
1,M,Fiachra Daly,SBD,MR-HS,66,Raw,SJP,MA,64.8,102.5,112.5,117.5,117.5,65,72.5,77.5,77.5,140,150,160,160,355,1998,
2,M,Benjamin Fischer,SBD,MR-HS,66,Raw,SJP,NH,63.4,80,95,102.5,102.5,67.5,-75,75,75,125,135,142.5,142.5,320,1998,
3,M,Corey Logan,SBD,MR-HS,66,Raw,SJP,MA,62.4,-82.5,87.5,-97.5,87.5,52.5,57.5,62.5,62.5,100,112.5,-122.5,112.5,262.5,2000,
1,M,Jake Connolly,SBD,MR-HS,74,Raw,SJP,MA,69.8,150,167.5,175,175,95,102.5,-110,102.5,167.5,177.5,187.5,187.5,465,1999,
2,M,Michael Terranova,SBD,MR-HS,74,Raw,SJP,MA,70.8,-125,135,142.5,142.5,70,75,-80,75,167.5,177.5,187.5,187.5,405,1998,
3,M,Matthew Everett,SBD,MR-HS,74,Raw,,MA,67.4,120,130,-135,130,60,65,-70,65,167.5,177.5,187.5,187.5,382.5,1997,
4,M,Charles Ahern,SBD,MR-HS,74,Raw,SJP,MA,73.8,87.5,95,110,110,65,67.5,-72.5,67.5,125,137.5,150,150,327.5,2000,
1,M,Peter Lowrie,SBD,MR-HS,83,Raw,SJP,MA,83,120,130,-137.5,130,72.5,82.5,-87.5,82.5,140,155,175,175,387.5,1999,
1,M,Cole Mooney,SBD,MR-HS,105,Raw,SJP,MA,101.6,195,207.5,220,220,102.5,-112.5,-112.5,102.5,175,185,197.5,197.5,520,2000,
1,M,Nicholas Dacey,SBD,MR-Jr,66,Raw,UNA,MA,65.2,165,-172.5,-172.5,165,122.5,127.5,-137.5,127.5,200,-207.5,207.5,207.5,500,1995,
2,M,Adrian Ramos,SBD,MR-Jr,66,Raw,UNA,RI,62.4,102.5,120,145,145,97.5,110,-115,110,142.5,157.5,172.5,172.5,427.5,1995,
3,M,Sam Zerega,SBD,MR-Jr,66,Raw,UNA,RI,64.6,125,132.5,137.5,137.5,80,85,-92.5,85,142.5,152.5,-160,152.5,375,1995,
4,M,Greg Conroy,SBD,MR-Jr,66,Raw,UNA,RI,63.8,110,115,120,120,72.5,-80,80,80,137.5,150,167.5,167.5,367.5,1993,
1,M,Anthony Guarracino,SBD,MR-Jr,74,Raw,UNA,MA,73.4,207.5,217.5,-225,217.5,110,115,120,120,215,220,225,225,562.5,1992,
2,M,Samuel Dorilas,SBD,MR-Jr,74,Raw,UNA,MA,73,165,175,187.5,187.5,155,165,172.5,172.5,180,200,-220,200,560,1992,
3,M,Dennis Trinh,SBD,MR-Jr,74,Raw,UNA,MA,67,175,185,195,195,120,125,130,130,-200,200,220,220,545,1994,
4,M,Gray Chastine,SBD,MR-Jr,74,Raw,NL,GA,72.4,180,190,-195,190,95,102.5,107.5,107.5,212.5,227.5,237.5,237.5,535,1993,
5,M,Kevin Cole,SBD,MR-Jr,74,Raw,NU,CT,72.8,160,172.5,182.5,182.5,110,115,122.5,122.5,202.5,217.5,227.5,227.5,532.5,1995,
6,M,Ryan Hoang,SBD,MR-Jr,74,Raw,UNA,MA,74,145,152.5,170,170,105,110,-125,110,180,197.5,212.5,212.5,492.5,1992,
7,M,Anthony Gustin,SBD,MR-Jr,74,Raw,UNA,MA,73.8,137.5,155,167.5,167.5,107.5,117.5,125,125,165,182.5,192.5,192.5,485,1995,
8,M,Griffin Green,SBD,MR-Jr,74,Raw,UNA,MA,73.6,152.5,162.5,165,165,92.5,-97.5,-97.5,92.5,195,-205,210,210,467.5,1995,
9,M,Patrick Kelly,SBD,MR-Jr,74,Raw,UNA,MA,73.8,137.5,150,165,165,120,-135,-135,120,150,160,170,170,455,1993,
10,M,Seamus Bann,SBD,MR-Jr,74,Raw,UNA,MA,72.8,115,125,130,130,102.5,-110,-110,102.5,170,-172.5,-172.5,170,402.5,1993,
11,M,Jonah Olsen,SB,MR-Jr,74,Raw,UNA,MA,73.2,170,177.5,-187.5,177.5,-137.5,140,-145,140,,,,,317.5,1993,
1,M,Nicholas Walker,SBD,MR-Jr,83,Raw,UNA,MA,80.2,192.5,205,217.5,217.5,115,120,125,125,235,247.5,255,255,597.5,1997,
2,M,Kenny Ha,SBD,MR-Jr,83,Raw,Uconn,CT,82,192.5,217.5,-227.5,217.5,115,125,130,130,200,217.5,232.5,232.5,580,1994,
3,M,Sy Pires,SBD,MR-Jr,83,Raw,UNA,RI,83,-150,150,185,185,102.5,112.5,122.5,122.5,190,205,217.5,217.5,525,1992,
4,M,Alessio Zisa,SBD,MR-Jr,83,Raw,UNA,NJ,81,145,162.5,177.5,177.5,125,137.5,142.5,142.5,172.5,187.5,202.5,202.5,522.5,1993,
5,M,Ben Mock,SBD,MR-Jr,83,Raw,UNA,MA,82.2,182.5,190,197.5,197.5,105,107.5,-112.5,107.5,212.5,-222.5,-222.5,212.5,517.5,1996,
6,M,Justin Franchetti,SBD,MR-Jr,83,Raw,NL,RI,82,-142.5,142.5,-155,142.5,102.5,110,115,115,172.5,187.5,192.5,192.5,450,1993,
1,M,Nick King,SBD,MR-Jr,93,Raw,UNA,MA,89.6,205,220,-227.5,220,132.5,140,-142.5,140,257.5,275,-290,275,635,1993,
2,M,Zachary Lee,SBD,MR-Jr,93,Raw,UNA,MA,90.8,175,180,185,185,130,135,-137.5,135,190,195,200,200,520,1993,
1,M,Michael Pennacchia,SBD,MR-Jr,105,Raw,UNA,RI,97.2,247.5,262.5,272.5,272.5,140,150,155,155,300,317.5,-327.5,317.5,745,1995,
2,M,Theodore Mouratidis,SBD,MR-Jr,105,Raw,UNA,MA,102.4,220,232.5,240,240,147.5,155,160,160,287.5,302.5,307.5,307.5,707.5,1993,
3,M,John Dee,SBD,MR-Jr,105,Raw,UNA,MA,101.4,205,220,227.5,227.5,182.5,-192.5,192.5,192.5,-227.5,-245,245,245,665,1992,
4,M,John Anastasi,SBD,MR-Jr,105,Raw,UNA,MA,104.2,225,235,245,245,150,-157.5,,150,220,-225,,220,615,1995,
5,M,Spencer Piasecki,SBD,MR-Jr,105,Raw,UNA,CT,102.8,197.5,207.5,217.5,217.5,132.5,140,-142.5,140,225,237.5,-250,237.5,595,1994,
6,M,William Lavelle,SBD,MR-Jr,105,Raw,UNA,NJ,98.2,165,-175,-175,165,115,-125,-125,115,197.5,212.5,-220,212.5,492.5,1995,
1,M,Joseph Hays,SBD,MR-Jr,120+,Raw,UNA,MA,123,170,182.5,190,190,105,117.5,-127.5,117.5,170,190,212.5,212.5,520,1992,
1,M,Gary MacKenzie,SBD,MR-M,83,Raw,CWC,MA,77.8,-125,125,142.5,142.5,55,60,-62.5,60,142.5,150,155,155,357.5,1957,
1,M,Sam Pagan,SBD,MR-M,93,Raw,CCG,MA,91.2,192.5,205,215,215,160,167.5,175,175,235,250,-265,250,640,1967,
2,M,Mark Knowles,SBD,MR-M,93,Raw,UNA,MA,92.4,170,-185,185,185,112.5,120,-122.5,120,-180,205,212.5,212.5,517.5,1963,
3,M,William Reinerth,SBD,MR-M,93,Raw,UNA,RI,91,-130,130,-142.5,130,85,-92.5,-92.5,85,152.5,165,180,180,395,1968,
4,M,Geoffrey Crawshaw,SBD,MR-M,93,Raw,,MA,85.2,120,-130,-130,120,85,90,95,95,130,140,150,150,365,1963,
1,M,Arnaldo Ocasio,SBD,MR-M,105,Raw,UNA,MA,101.2,165,207.5,220,220,85,95,100,100,150,165,180,180,500,1966,
2,M,Jesse Antosiewicz,SBD,MR-M,105,Raw,PT,NH,102,142.5,152.5,160,160,107.5,-117.5,-117.5,107.5,175,185,195,195,462.5,1969,
1,M,Richard Bettina,SBD,MR-M,120,Raw,TK,MA,117.8,195,-202.5,202.5,202.5,120,122.5,125,125,225,227.5,-230,227.5,555,1957,
2,M,Jason Price,SBD,MR-M,120,Raw,UNA,RI,111.6,165,175,-182.5,175,115,-125,-125,115,220,-227.5,227.5,227.5,517.5,1975,
3,M,Charles Cocci,SBD,MR-M,120,Raw,CCG,MA,116,152.5,-162.5,-172.5,152.5,82.5,92.5,100,100,190,197.5,200,200,452.5,1956,
1,M,Mike Khoury,SBD,MR-M,120+,Raw,CCG,MA,123.4,240,252.5,272.5,272.5,-165,165,-175,165,267.5,280,292.5,292.5,730,1965,
1,M,Kevin Hu #1,SBD,MR-O,59,Raw,JDO,MA,58.8,-95,95,105,105,62.5,-67.5,-67.5,62.5,135,-145,145,145,312.5,1999,
1,M,Allen Zou,SBD,MR-O,66,Raw,BLS,MA,65.8,162.5,172.5,177.5,177.5,127.5,135,140.5,140.5,207.5,220,228,228,546,1996,
2,M,Matthew Arremony,SBD,MR-O,66,Raw,Uconn,CT,63,167.5,177.5,187.5,187.5,-107.5,112.5,117.5,117.5,205,-217.5,-232.5,205,510,1997,
3,M,Nicholas Dacey,SBD,MR-O,66,Raw,UNA,MA,65.2,165,-172.5,-172.5,165,122.5,127.5,-137.5,127.5,200,-207.5,207.5,207.5,500,1995,
4,M,Joshua Bane,SBD,MR-O,66,Raw,TC,MA,63,152.5,162.5,170,170,107.5,117.5,-125,117.5,180,192.5,200,200,487.5,1987,
5,M,Adrian Ramos,SBD,MR-O,66,Raw,UNA,RI,62.4,102.5,120,145,145,97.5,110,-115,110,142.5,157.5,172.5,172.5,427.5,1995,
6,M,Raymond Zheng,SBD,MR-O,66,Raw,BLS,MA,64.8,140,145,150,150,85,90,-92.5,90,142.5,152.5,-162.5,152.5,392.5,1998,
7,M,Sam Zerega,SBD,MR-O,66,Raw,UNA,RI,64.6,125,132.5,137.5,137.5,80,85,-92.5,85,142.5,152.5,-160,152.5,375,1995,
8,M,Greg Conroy,SBD,MR-O,66,Raw,UNA,RI,63.8,110,115,120,120,72.5,-80,80,80,137.5,150,167.5,167.5,367.5,1993,
9,M,Daniel Cucinotta,SBD,MR-O,66,Raw,UNA,MA,64.8,102.5,-115,115,115,80,-87.5,-87.5,80,150,160,,160,355,2000,
1,M,Anthony Guarracino,SBD,MR-O,74,Raw,UNA,MA,73.4,207.5,217.5,-225,217.5,110,115,120,120,215,220,225,225,562.5,1992,
2,M,Samuel Dorilas,SBD,MR-O,74,Raw,UNA,MA,73,165,175,187.5,187.5,155,165,172.5,172.5,180,200,-220,200,560,1992,
3,M,John Larkin,SBD,MR-O,74,Raw,NL,RI,73.6,180,195,-202.5,195,122.5,-130,-130,122.5,220,235,-240,235,552.5,1988,
4,M,Dennis Trinh,SBD,MR-O,74,Raw,UNA,MA,67,175,185,195,195,120,125,130,130,-200,200,220,220,545,1994,
5,M,Gray Chastine,SBD,MR-O,74,Raw,NL,GA,72.4,180,190,-195,190,95,102.5,107.5,107.5,212.5,227.5,237.5,237.5,535,1993,
6,M,Kevin Cole,SBD,MR-O,74,Raw,NU,CT,72.8,160,172.5,182.5,182.5,110,115,122.5,122.5,202.5,217.5,227.5,227.5,532.5,1995,
7,M,Erwin Castaneda,SBD,MR-O,74,Raw,NL,RI,72.6,182.5,192.5,-200,192.5,112.5,120,122.5,122.5,200,212.5,-225,212.5,527.5,1985,
8,M,Enrique Rodriguez #1,SBD,MR-O,74,Raw,UNA,RI,73.8,-150,165,172.5,172.5,117.5,122.5,-125,122.5,202.5,217.5,-225,217.5,512.5,1990,
9,M,Christopher Ng,SBD,MR-O,74,Raw,UNA,MA,74,155,162.5,167.5,167.5,120,127.5,130,130,200,-212.5,212.5,212.5,510,1986,
10,M,Ryan Hoang,SBD,MR-O,74,Raw,UNA,MA,74,145,152.5,170,170,105,110,-125,110,180,197.5,212.5,212.5,492.5,1992,
11,M,Anthony Gustin,SBD,MR-O,74,Raw,UNA,MA,73.8,137.5,155,167.5,167.5,107.5,117.5,125,125,165,182.5,192.5,192.5,485,1995,
12,M,Griffin Green,SBD,MR-O,74,Raw,UNA,MA,73.6,152.5,162.5,165,165,92.5,-97.5,-97.5,92.5,195,-205,210,210,467.5,1995,
13,M,Patrick Kelly,SBD,MR-O,74,Raw,UNA,MA,73.8,137.5,150,165,165,120,-135,-135,120,150,160,170,170,455,1993,
14,M,Josh Tang,SBD,MR-O,74,Raw,UNA,MA,72.6,147.5,157.5,-160,157.5,100,-107.5,-107.5,100,182.5,190,192.5,192.5,450,1990,
15,M,Daniel Marquez,SBD,MR-O,74,Raw,UNA,RI,73.4,137.5,142.5,150,150,-90,90,-95,90,185,200,-210,200,440,1986,
16,M,Seamus Bann,SBD,MR-O,74,Raw,UNA,MA,72.8,115,125,130,130,102.5,-110,-110,102.5,170,-172.5,-172.5,170,402.5,1993,
17,M,Andrew Hart,SBD,MR-O,74,Raw,CWC,MA,73.2,102.5,110,115,115,55,60,-62.5,60,140,150,-157.5,150,325,2000,
18,M,Jonah Olsen,SB,MR-O,74,Raw,UNA,MA,73.2,170,177.5,-187.5,177.5,-137.5,140,-145,140,,,,,317.5,1993,
1,M,Sean Noriega,SBD,MR-O,83,Raw,UNA,NY,82.8,215,227.5,235,235,165,172.5,175,175,265,-285,290,290,700,1996,
2,M,Jeffrey DeNunzio,SBD,MR-O,83,Raw,UNA,RI,82.2,225,-230,-230,225,-140,140,-142.5,140,270,280,-285,280,645,1990,
3,M,Keigan Dunn,SBD,MR-O,83,Raw,UNA,RI,80.6,235,247.5,-260.5,247.5,112.5,120,-132.5,120,260,275,-277.5,275,642.5,1997,
4,M,Frank Wu,SBD,MR-O,83,Raw,UNA,MA,82.4,177.5,190,200,200,132.5,137.5,140,140,267.5,-287.5,287.5,287.5,627.5,1983,
5,M,Nick Wright #1,SBD,MR-O,83,Raw,TF,RI,82.8,195,210,215,215,112.5,140,142.5,142.5,230,245,255,255,612.5,1991,
6,M,Nick Westgate,SBD,MR-O,83,Raw,NL,MA,81.8,192.5,205,215,215,152.5,162.5,165,165,212.5,227.5,-235,227.5,607.5,1988,
7,M,Nicholas Walker,SBD,MR-O,83,Raw,UNA,MA,80.2,192.5,205,217.5,217.5,115,120,125,125,235,247.5,255,255,597.5,1997,
8,M,Mike McCloskey,SBD,MR-O,83,Raw,UNA,MA,80.2,192.5,205,215,215,127.5,137.5,-145,137.5,210,227.5,-237.5,227.5,580,1991,
9,M,Kenny Ha,SBD,MR-O,83,Raw,Uconn,CT,82,192.5,217.5,-227.5,217.5,115,125,130,130,200,217.5,232.5,232.5,580,1994,
10,M,Michael Sullivan,SBD,MR-O,83,Raw,UNA,MA,82.8,-200,200,215,215,117.5,125,127.5,127.5,215,230,235,235,577.5,1997,
11,M,Shawn O'Rourke,SBD,MR-O,83,Raw,UNA,CT,81.2,165,185,,185,145,150,155,155,215,227.5,230,230,570,1996,
12,M,Benjamin Steele,SBD,MR-O,83,Raw,UNA,NY,82.6,207.5,215,-227.5,215,120,127.5,130,130,200,212.5,222.5,222.5,567.5,1997,
13,M,Robert Dortona,SBD,MR-O,83,Raw,UNA,NH,83,170,180,-192.5,180,110,120,-125,120,215,230,247.5,247.5,547.5,1997,
14,M,Anthony Rienzo,SBD,MR-O,83,Raw,UNA,MA,79.6,167.5,170,172.5,172.5,120,125,-127.5,125,212.5,227.5,-235,227.5,525,1991,
15,M,Sy Pires,SBD,MR-O,83,Raw,UNA,RI,83,-150,150,185,185,102.5,112.5,122.5,122.5,190,205,217.5,217.5,525,1992,
16,M,Alessio Zisa,SBD,MR-O,83,Raw,UNA,NJ,81,145,162.5,177.5,177.5,125,137.5,142.5,142.5,172.5,187.5,202.5,202.5,522.5,1993,
17,M,Ben Mock,SBD,MR-O,83,Raw,UNA,MA,82.2,182.5,190,197.5,197.5,105,107.5,-112.5,107.5,212.5,-222.5,-222.5,212.5,517.5,1996,
18,M,Willie Phoeung,SBD,MR-O,83,Raw,UNA,MA,81.8,-180,180,-197.5,180,87.5,95,102.5,102.5,205,220,232.5,232.5,515,2000,
19,M,Giacomo Marchese,SBD,MR-O,83,Raw,UNA,MA,82.6,152.5,167.5,177.5,177.5,107.5,117.5,122.5,122.5,195,212.5,-227.5,212.5,512.5,1980,
20,M,Jonathan Wang,SBD,MR-O,83,Raw,UNA,MA,78.6,165,177.5,-182.5,177.5,110,117.5,-120,117.5,190,200,205,205,500,1996,
21,M,Matthew Boyle,SBD,MR-O,83,Raw,FHS,MA,82.2,-142.5,142.5,157.5,157.5,95,102.5,110,110,200,210,217.5,217.5,485,1998,
22,M,Shawn Lukeman,SBD,MR-O,83,Raw,NL,RI,80.4,145,155,167.5,167.5,112.5,125,-137.5,125,167.5,180,-190,180,472.5,1988,
23,M,Mark Gong,SBD,MR-O,83,Raw,UNA,MA,78.2,135,147.5,157.5,157.5,125,135,-142.5,135,155,167.5,175,175,467.5,1992,
24,M,Matthew Van Kleeck,SBD,MR-O,83,Raw,CWC,MA,77.8,165,175,-185,175,107.5,110,115,115,165,175,-177.5,175,465,1983,
25,M,Samuel Carlen,SBD,MR-O,83,Raw,UNA,PA,78.4,-145,145,160,160,105,112.5,-120,112.5,180,192.5,-197.5,192.5,465,1996,
26,M,Alexander Ramos,SBD,MR-O,83,Raw,CWC,MA,81,165,-170,-170,165,97.5,100,-105,100,200,-215,-215,200,465,1978,
27,M,Justin Franchetti,SBD,MR-O,83,Raw,NL,RI,82,-142.5,142.5,-155,142.5,102.5,110,115,115,172.5,187.5,192.5,192.5,450,1993,
28,M,Gary MacKenzie,SBD,MR-O,83,Raw,CWC,MA,77.8,-125,125,142.5,142.5,55,60,-62.5,60,142.5,150,155,155,357.5,1957,
1,M,Nick Santangelo,SBD,MR-O,93,Raw,UNA,MA,92,237.5,250,265,265,150,165,175,175,227.5,240,-260,240,680,1990,
2,M,Demitri Venetos,SBD,MR-O,93,Raw,UNA,NH,92.6,200,215,227.5,227.5,-172.5,172.5,182.5,182.5,232.5,-247.5,252.5,252.5,662.5,1992,
3,M,Zachery McBey,SBD,MR-O,93,Raw,UNA,MA,93,-222.5,222.5,-232.5,222.5,157.5,162.5,167.5,167.5,247.5,260,-265,260,650,1989,
4,M,Sam Pagan,SBD,MR-O,93,Raw,CCG,MA,91.2,192.5,205,215,215,160,167.5,175,175,235,250,-265,250,640,1967,
5,M,Nick King,SBD,MR-O,93,Raw,UNA,MA,89.6,205,220,-227.5,220,132.5,140,-142.5,140,257.5,275,-290,275,635,1993,
6,M,Derrick Healy,SBD,MR-O,93,Raw,UNA,MA,92.2,200,210,220,220,140,147.5,-152.5,147.5,250,257.5,-262.5,257.5,625,1990,
7,M,John Kimball,SBD,MR-O,93,Raw,UNA,NH,92,192.5,202.5,-210,202.5,115,120,130,130,237.5,247.5,252.5,252.5,585,1989,
8,M,Nicholas Cummings,SBD,MR-O,93,Raw,UNA,MA,91.8,-190,190,192.5,192.5,132.5,-140,-140,132.5,247.5,-255,-255,247.5,572.5,1979,
9,M,Christopher Burman,SBD,MR-O,93,Raw,NL,RI,92.4,185,200,-212.5,200,130,135,-140,135,222.5,232.5,-240,232.5,567.5,1987,
10,M,Joshua Wakefield,SBD,MR-O,93,Raw,Chaos,MA,91.6,177.5,-185,185,185,120,-125,-125,120,237.5,245,252.5,252.5,557.5,1991,
11,M,Michael Proctor,SBD,MR-O,93,Raw,UNA,MA,92.6,-197.5,205,-220,205,115,-122.5,122.5,122.5,210,-227.5,-227.5,210,537.5,1989,
12,M,Steven Williamson,SBD,MR-O,93,Raw,UNA,MA,90.6,-185,185,195,195,-125,125,135,135,205,-215,-215,205,535,1990,
13,M,Donald Marini,SBD,MR-O,93,Raw,UNA,MA,90.4,-175,180,192.5,192.5,112.5,120,-125,120,207.5,217.5,-227.5,217.5,530,1982,
14,M,Zachary Lee,SBD,MR-O,93,Raw,UNA,MA,90.8,175,180,185,185,130,135,-137.5,135,190,195,200,200,520,1993,
15,M,Mark Knowles,SBD,MR-O,93,Raw,UNA,MA,92.4,170,-185,185,185,112.5,120,-122.5,120,-180,205,212.5,212.5,517.5,1963,
16,M,Matthew Downes,SBD,MR-O,93,Raw,UNA,RI,91.6,175,185,197.5,197.5,100,-105,-105,100,195,205,-217.5,205,502.5,1990,
17,M,Donald Counihan III,SBD,MR-O,93,Raw,UNA,MA,92.4,177.5,185,-187.5,185,70,75,90,90,205,215,-220,215,490,1988,
18,M,Michael Kenneally,SBD,MR-O,93,Raw,UNA,MA,84.8,140,-147.5,152.5,152.5,102.5,107.5,-112.5,107.5,145,152.5,160,160,420,1987,
19,M,William Reinerth,SBD,MR-O,93,Raw,UNA,RI,91,-130,130,-142.5,130,85,-92.5,-92.5,85,152.5,165,180,180,395,1968,
20,M,Drew Kurina,SBD,MR-O,93,Raw,SJHS,MA,92.6,115,122.5,130,130,60,65,-67.5,65,175,-180,-180,175,370,2001,
21,M,Geoffrey Crawshaw,SBD,MR-O,93,Raw,UNA,MA,85.2,120,-130,-130,120,85,90,95,95,130,140,150,150,365,1963,
1,M,Nicholas Guidice,SBD,MR-O,105,Raw,UNA,NH,103.4,262.5,272.5,-277.5,272.5,200,210,217.5,217.5,272.5,287.5,295,295,785,1987,
2,M,Michael Pennacchia,SBD,MR-O,105,Raw,UNA,RI,97.2,247.5,262.5,272.5,272.5,140,150,155,155,300,317.5,-327.5,317.5,745,1995,
3,M,Theodore Mouratidis,SBD,MR-O,105,Raw,UNA,MA,102.4,220,232.5,240,240,147.5,155,160,160,287.5,302.5,307.5,307.5,707.5,1993,
4,M,John Dee,SBD,MR-O,105,Raw,UNA,MA,101.4,205,220,227.5,227.5,182.5,-192.5,192.5,192.5,-227.5,-245,245,245,665,1992,
5,M,Stan Kantor,SBD,MR-O,105,Raw,TS,MA,104.4,227.5,237.5,242.5,242.5,-137.5,137.5,140,140,250,267.5,275,275,657.5,1984,
6,M,Dustin Diedrich,SBD,MR-O,105,Raw,UNA,NH,103.4,240,250,257.5,257.5,135,142.5,145,145,232.5,240,247.5,247.5,650,1985,
7,M,Ken Kawamoto,SBD,MR-O,105,Raw,UNA,MA,103.6,220,230,-237.5,230,147.5,155,160,160,232.5,247.5,257.5,257.5,647.5,1990,
8,M,Garrett Berna,SBD,MR-O,105,Raw,CCG,MA,102,222.5,230,237.5,237.5,160,-167.5,170,170,232.5,-245,-250,232.5,640,1986,
9,M,Ryan Brule,SBD,MR-O,105,Raw,UNA,MA,103.2,200,215,225,225,145,155,-167.5,155,227.5,240,250,250,630,1987,
10,M,Stephen Leker,SBD,MR-O,105,Raw,CWC,MA,103,230,242.5,250,250,110,-117.5,117.5,117.5,235,242.5,255,255,622.5,1986,
11,M,Alex Jalbert,SBD,MR-O,105,Raw,UNA,MA,102,200,215,-220,215,130,135,-140,135,-265,265,-300,265,615,1991,
12,M,John Anastasi,SBD,MR-O,105,Raw,UNA,MA,104.2,225,235,245,245,150,-157.5,,150,220,-225,,220,615,1995,
13,M,Spencer Piasecki,SBD,MR-O,105,Raw,UNA,CT,102.8,197.5,207.5,217.5,217.5,132.5,140,-142.5,140,225,237.5,-250,237.5,595,1994,
14,M,Ben Leiden,SBD,MR-O,105,Raw,MIT,MA,102,165,175,-182.5,175,127.5,135,137.5,137.5,222.5,-240,245,245,557.5,1988,
15,M,Cole Mooney,SBD,MR-O,105,Raw,SJP,MA,101.6,195,207.5,220,220,102.5,-112.5,-112.5,102.5,175,185,197.5,197.5,520,2000,
16,M,Arnaldo Ocasio,SBD,MR-O,105,Raw,UNA,MA,101.2,165,207.5,220,220,85,95,100,100,150,165,180,180,500,1966,
17,M,William Lavelle,SBD,MR-O,105,Raw,UNA,NJ,98.2,165,-175,-175,165,115,-125,-125,115,197.5,212.5,-220,212.5,492.5,1995,
18,M,Jesse Antosiewicz,SBD,MR-O,105,Raw,PT,NH,102,142.5,152.5,160,160,107.5,-117.5,-117.5,107.5,175,185,195,195,462.5,1969,
19,M,Eric DiFalco,SBD,MR-O,105,Raw,UNA,MA,100.2,155,157.5,162.5,162.5,95,102.5,107.5,107.5,165,177.5,187.5,187.5,457.5,1983,
1,M,Michael Sullivan,SBD,MR-O,120,Raw,CCG,MA,118.2,252.5,262.5,272.5,272.5,165,170,,170,290,,,290,732.5,1997,
2,M,William Lyons,SBD,MR-O,120,Raw,NL,RI,119,-215,215,-227.5,215,137.5,142.5,147.5,147.5,270,285,300,300,662.5,1987,
3,M,Fredrick Zeiba,SBD,MR-O,120,Raw,TC,MA,120,235,252.5,-272.5,252.5,140,147.5,-155,147.5,217.5,230,237.5,237.5,637.5,1988,
4,M,Frank Carr,SBD,MR-O,120,Raw,UNA,MA,113.2,230,-250,-250,230,130,-137.5,-137.5,130,250,265,275,275,635,1991,
5,M,Jason Liu,SBD,MR-O,120,Raw,LS,MA,107.8,197.5,205,217.5,217.5,137.5,147.5,155,155,197.5,212.5,220,220,592.5,1999,
6,M,Richard Bettina,SBD,MR-O,120,Raw,TK,MA,117.8,195,-202.5,202.5,202.5,120,122.5,125,125,225,227.5,-230,227.5,555,1957,
7,M,Jason Price,SBD,MR-O,120,Raw,UNA,RI,111.6,165,175,-182.5,175,115,-125,-125,115,220,-227.5,227.5,227.5,517.5,1975,
8,M,Tim Bernard,SBD,MR-O,120,Raw,UNA,MA,119.6,145,152.5,-157.5,152.5,112.5,117.5,120,120,180,185,190,190,462.5,2000,
9,M,Charles Cocci,SBD,MR-O,120,Raw,CCG,MA,116,152.5,-162.5,-172.5,152.5,82.5,92.5,100,100,190,197.5,200,200,452.5,1956,
1,M,Mike Khoury,SBD,MR-O,120+,Raw,CCG,MA,123.4,240,252.5,272.5,272.5,-165,165,-175,165,267.5,280,292.5,292.5,730,1965,
2,M,Adam Delancey,SBD,MR-O,120+,Raw,CCG,MA,132.4,210,222.5,-227.5,222.5,127.5,-137.5,-137.5,127.5,227.5,-240,-240,227.5,577.5,1989,
3,M,Brian Burns,SBD,MR-O,120+,Raw,UNA,MA,122.6,192.5,205,-210,205,110,120,-122.5,120,-215,-215,215,215,540,1999,
4,M,Joseph Hays,SBD,MR-O,120+,Raw,UNA,MA,123,170,182.5,190,190,105,117.5,-127.5,117.5,170,190,212.5,212.5,520,1992,
1,M,Kevin Hu #1,SBD,MR-T,59,Raw,JDO,MA,58.8,-95,95,105,105,62.5,-67.5,-67.5,62.5,135,-145,145,145,312.5,1999,
1,M,Allen Zou,SBD,MR-T,66,Raw,BLS,MA,65.8,162.5,172.5,177.5,177.5,127.5,135,140.5,140.5,207.5,220,228,228,546,1996,
2,M,Matthew Arremony,SBD,MR-T,66,Raw,Uconn,CT,63,167.5,177.5,187.5,187.5,-107.5,112.5,117.5,117.5,205,-217.5,-232.5,205,510,1997,
3,M,Raymond Zheng,SBD,MR-T,66,Raw,BLS,MA,64.8,140,145,150,150,85,90,-92.5,90,142.5,152.5,-162.5,152.5,392.5,1998,
1,M,Andrew Hart,SBD,MR-T,74,Raw,CWC,MA,73.2,102.5,110,115,115,55,60,-62.5,60,140,150,-157.5,150,325,2000,
1,M,Sean Noriega,SBD,MR-T,83,Raw,UNA,NY,82.8,215,227.5,235,235,165,172.5,175,175,265,-285,290,290,700,1996,
2,M,Keigan Dunn,SBD,MR-T,83,Raw,UNA,RI,80.6,235,247.5,-260.5,247.5,112.5,120,-132.5,120,260,275,-277.5,275,642.5,1997,
3,M,Michael Sullivan,SBD,MR-T,83,Raw,UNA,MA,82.8,-200,200,215,215,117.5,125,127.5,127.5,215,230,235,235,577.5,1997,
4,M,Benjamin Steele,SBD,MR-T,83,Raw,UNA,NY,82.6,207.5,215,-227.5,215,120,127.5,130,130,200,212.5,222.5,222.5,567.5,1997,
5,M,Robert Dortona,SBD,MR-T,83,Raw,UNA,NH,83,170,180,-192.5,180,110,120,-125,120,215,230,247.5,247.5,547.5,1997,
6,M,Willie Phoeung,SBD,MR-T,83,Raw,UNA,MA,81.8,-180,180,-197.5,180,87.5,95,102.5,102.5,205,220,232.5,232.5,515,2000,
7,M,Matthew Boyle,SBD,MR-T,83,Raw,FHS,MA,82.2,-142.5,142.5,157.5,157.5,95,102.5,110,110,200,210,217.5,217.5,485,1998,
8,M,Samuel Carlen,SBD,MR-T,83,Raw,UNA,PA,78.4,-145,145,160,160,105,112.5,-120,112.5,180,192.5,-197.5,192.5,465,1996,
1,M,Drew Kurina,SBD,MR-T,93,Raw,SJHS,MA,92.6,115,122.5,130,130,60,65,-67.5,65,175,-180,-180,175,370,2001,
1,M,Jason Liu,SBD,MR-T,120,Raw,LS,MA,107.8,197.5,205,217.5,217.5,137.5,147.5,155,155,197.5,212.5,220,220,592.5,1999,
1,M,Brian Burns,SBD,MR-T,120+,Raw,UNA,MA,122.6,192.5,205,-210,205,110,120,-122.5,120,-215,-215,215,215,540,1999,
1,F,Stacey Lipkin,SB,FR-Jr,52,Raw,TK,MA,50.4,75,77.5,-80,77.5,42.5,-45,,42.5,,,,,120,1993,
1,F,Shannon Chipman,SBD,FR-Jr,57,Raw,UNA,MA,56.8,102.5,112.5,-120,112.5,47.5,55,62.5,62.5,107.5,120,-137.5,120,295,1993,
2,F,Colleen Skeirik,SBD,FR-Jr,57,Raw,UNA,NH,53.6,82.5,-102.5,102.5,102.5,52.5,55,57.5,57.5,100,112.5,117.5,117.5,277.5,1994,
3,F,Tess Freeman,SBD,FR-Jr,57,Raw,URI,RI,56.8,-77.5,77.5,92.5,92.5,45,-52.5,52.5,52.5,97.5,105,-112.5,105,250,1992,
4,F,Cara Georgio,SBD,FR-Jr,57,Raw,NL,RI,55.6,75,82.5,87.5,87.5,37.5,40,-45,40,85,92.5,100,100,227.5,1994,
1,F,Bintou Marong,SBD,FR-Jr,63,Raw,UNA,RI,63,95,100,-107.5,100,47.5,50,52.5,52.5,127.5,135,145,145,297.5,1993,
1,F,Briana Roldan,SBD,FR-Jr,72,Raw,,MA,66.7,-135,145,-155,145,70,-75,-75,70,135,145,-155,145,360,1992,
2,F,Joelle Reyes,SBD,FR-Jr,72,Raw,UNA,CT,63.5,112.5,-120,122.5,122.5,55,-62.5,-62.5,55,130,140,145,145,322.5,1993,
3,F,Emily Claffey,SBD,FR-Jr,72,Raw,UNA,MA,70.2,80,87.5,95,95,47.5,52.5,57.5,57.5,85,97.5,105,105,257.5,1994,
1,F,Bridget Fordham,SBD,FR-Jr,84,Raw,UNA,NH,78,92.5,100,-105,100,57.5,62.5,65,65,107.5,120,127.5,127.5,292.5,1995,
2,F,Angeliki Chiti,SBD,FR-Jr,84,Raw,UNA,NY,74.2,-82.5,82.5,92.5,92.5,45,47.5,55,55,100,110,122.5,122.5,270,1994,
1,F,Noelle Lustwerk,SBD,FR-Jr,84+,Raw,UNA,MA,88.4,142.5,152.5,-162.5,152.5,60,65,-72.5,65,155,167.5,-182.5,167.5,385,1995,
1,F,Rebecca Townsend,SBD,FR-M,57,Raw,UNA,MA,57,-90,92.5,97.5,97.5,42.5,47.5,-50,47.5,-110,115,125,125,270,1973,
2,F,Lizz Smullen,SBD,FR-M,57,Raw,UNA,NH,56.6,75,77.5,80,80,-52.5,52.5,-57.5,52.5,105,112.5,120,120,252.5,1962,
1,F,Rachel Roberts,SBD,FR-M,63,Raw,UNA,MA,62.8,85,92.5,97.5,97.5,52.5,60,-65,60,-110,120,127.5,127.5,285,1973,
2,F,Susan Walter,SBD,FR-M,63,Raw,UNA,MA,62.6,42.5,45,50,50,40,42.5,-45,42.5,92.5,95,97.5,97.5,190,1948,
1,F,Kerry Cannistraro,SBD,FR-M,72,Raw,UNA,MA,67,62.5,65,67.5,67.5,32.5,35,37.5,37.5,80,85,-90,85,190,1964,
DQ,F,Suzanne Cyr,SBD,FR-M,72,Raw,TK,MA,70,-85,-85,-85,,42.5,45,47.5,47.5,105,110,115,115,,1966,
1,F,Deb Mason,SBD,FR-M,84,Raw,NL,RI,78.2,-80,80,85,85,-45,50,-52.5,50,117.5,122.5,-127.5,122.5,257.5,1956,
1,F,Annemarie Duvarney,SBD,FR-O,47,Raw,UNA,RI,41.2,67.5,-75,75,75,-40,40,-45,40,90,95,100,100,215,1991,
2,F,Sophie Emond,SBD,FR-O,47,Raw,Chaos,MA,45.5,60,65,70,70,37.5,-45,45,45,70,77.5,82.5,82.5,197.5,2003,
1,F,Mercedes Mello,SBD,FR-O,52,Raw,UNA,MA,51.2,92.5,102.5,110,110,42.5,50,-52.5,50,112.5,130,137.5,137.5,297.5,1992,
2,F,Shayna Bennett,SBD,FR-O,52,Raw,UNA,MA,51.8,85,90,-92.5,90,55,57.5,-60,57.5,132.5,140,145,145,292.5,1986,
3,F,Tiffini Mann,SBD,FR-O,52,Raw,TK,MA,49.4,87.5,92.5,-97.5,92.5,47.5,50,-52.5,50,115,120,125,125,267.5,1984,
4,F,Stacey Lipkin,SB,FR-O,52,Raw,TK,MA,50.4,75,77.5,-80,77.5,42.5,-45,,42.5,,,,,120,1993,
1,F,Shannon Chipman,SBD,FR-O,57,Raw,UNA,MA,56.8,102.5,112.5,-120,112.5,47.5,55,62.5,62.5,107.5,120,-137.5,120,295,1993,
2,F,Colleen Skeirik,SBD,FR-O,57,Raw,UNA,NH,53.6,82.5,-102.5,102.5,102.5,52.5,55,57.5,57.5,100,112.5,117.5,117.5,277.5,1994,
3,F,Rebecca Townsend,SBD,FR-O,57,Raw,UNA,MA,57,-90,92.5,97.5,97.5,42.5,47.5,-50,47.5,-110,115,125,125,270,1973,
4,F,Lizz Smullen,SBD,FR-O,57,Raw,UNA,NH,56.6,75,77.5,80,80,-52.5,52.5,-57.5,52.5,105,112.5,120,120,252.5,1962,
5,F,Tess Freeman,SBD,FR-O,57,Raw,URI,RI,56.8,-77.5,77.5,92.5,92.5,45,-52.5,52.5,52.5,97.5,105,-112.5,105,250,1992,
6,F,Cara Georgio,SBD,FR-O,57,Raw,NL,RI,55.6,75,82.5,87.5,87.5,37.5,40,-45,40,85,92.5,100,100,227.5,1994,
7,F,Jola Balboa,SBD,FR-O,57,Raw,UNA,MA,56.4,80,-87.5,-87.5,80,40,42.5,-47.5,42.5,87.5,95,102.5,102.5,225,1988,
1,F,Meghan McClorey,SBD,FR-O,63,Raw,FF,MA,62.8,-150,150,-157.5,150,90,-92.5,-92.5,90,150,155,-160,155,395,1988,
2,F,Kait Mendall,SBD,FR-O,63,Raw,UNA,MA,61.4,125,130,137.5,137.5,85,87.5,90,90,157.5,-162.5,165,165,392.5,1988,
3,F,Sinead Gill,SBD,FR-O,63,Raw,UNA,MA,61.8,137.5,145,-152.5,145,75,-80,-80,75,142.5,152.5,157.5,157.5,377.5,1991,
4,F,Erin Kiely,SBD,FR-O,63,Raw,UNA,MA,61,95,102.5,110,110,62.5,70,-77.5,70,135,150,165,165,345,1988,
5,F,Nicole Madore,SBD,FR-O,63,Raw,Chaos,MA,58.4,-110,-115,115,115,-47.5,47.5,52.5,52.5,115,120,132.5,132.5,300,1983,
6,F,Bintou Marong,SBD,FR-O,63,Raw,UNA,RI,63,95,100,-107.5,100,47.5,50,52.5,52.5,127.5,135,145,145,297.5,1993,
7,F,Rachel Roberts,SBD,FR-O,63,Raw,UNA,MA,62.8,85,92.5,97.5,97.5,52.5,60,-65,60,-110,120,127.5,127.5,285,1973,
8,F,Sarah Kim,SBD,FR-O,63,Raw,UNA,MA,61.8,85,92.5,-100,92.5,42.5,-47.5,-47.5,42.5,120,127.5,137.5,137.5,272.5,1992,
9,F,Samantha Lipkin,SBD,FR-O,63,Raw,TK,MA,57.5,95,-100,-100,95,47.5,50,52.5,52.5,105,110,115,115,262.5,1990,
10,F,Katie An,SBD,FR-O,63,Raw,FHS,MA,62.4,75,85,95,95,42.5,-47.5,47.5,47.5,92.5,102.5,110,110,252.5,1998,
11,F,Allyson Hayes,SBD,FR-O,63,Raw,UNA,MA,58.6,65,-72.5,77.5,77.5,55,62.5,-65,62.5,85,95,102.5,102.5,242.5,1985,
12,F,Leah Weiner,SBD,FR-O,63,Raw,UNA,RI,59,72.5,75,80,80,47.5,52.5,-55,52.5,85,90,95,95,227.5,1991,
13,F,Andrea Fogg,SBD,FR-O,63,Raw,CCG,MA,62.8,62.5,67.5,-72.5,67.5,32.5,37.5,-42.5,37.5,90,97.5,102.5,102.5,207.5,1979,
14,F,Susan Walter,SBD,FR-O,63,Raw,UNA,MA,62.6,42.5,45,50,50,40,42.5,-45,42.5,92.5,95,97.5,97.5,190,1948,
1,F,Justine Colgan,SBD,FR-O,72,Raw,UNA,MA,63.4,120,127.5,132.5,132.5,67.5,-72.5,-72.5,67.5,155,160,172.5,172.5,372.5,1991,
2,F,Briana Roldan,SBD,FR-O,72,Raw,UNA,MA,66.7,-135,145,-155,145,70,-75,-75,70,135,145,-155,145,360,1992,
3,F,Jessica Gillan,SBD,FR-O,72,Raw,BAY,MA,68.7,100,110,-117.5,110,62.5,-72.5,72.5,72.5,122.5,135,145,145,327.5,1988,
4,F,Joelle Reyes,SBD,FR-O,72,Raw,UNA,CT,63.5,112.5,-120,122.5,122.5,55,-62.5,-62.5,55,130,140,145,145,322.5,1993,
5,F,Sabrina De Costa,SBD,FR-O,72,Raw,UNA,MA,65.6,115,120,125,125,57.5,60,65,65,-125,125,130,130,320,1982,
6,F,Julia Bartolo,SBD,FR-O,72,Raw,CWC,MA,65.3,110,120,-125,120,-57.5,60,-62.5,60,115,122.5,130,130,310,1992,
7,F,Megan Rottler,SBD,FR-O,72,Raw,UNA,MA,66.5,112.5,-117.5,117.5,117.5,60,62.5,65,65,112.5,117.5,125,125,307.5,1988,
8,F,Kelly Almond,SBD,FR-O,72,Raw,UNA,,68,-97.5,97.5,102.5,102.5,45,50,55,55,110,120,-125,120,277.5,1985,
9,F,Emily Claffey,SBD,FR-O,72,Raw,UNA,MA,70.2,80,87.5,95,95,47.5,52.5,57.5,57.5,85,97.5,105,105,257.5,1994,
10,F,Kerry Cannistraro,SBD,FR-O,72,Raw,UNA,MA,67,62.5,65,67.5,67.5,32.5,35,37.5,37.5,80,85,-90,85,190,1964,
DQ,F,Suzanne Cyr,SBD,FR-O,72,Raw,TK,MA,70,-85,-85,-85,,42.5,45,47.5,47.5,105,110,115,115,,1966,
1,F,Alysson Arcibal,SBD,FR-O,84,Raw,UNA,,79.3,130,142.5,155,155,85,92.5,100,100,145,162.5,172.5,172.5,427.5,1992,
2,F,Nikole Auger,SBD,FR-O,84,Raw,UNA,MA,78.6,132.5,142.5,150,150,72.5,80,-87.5,80,160,170,177.5,177.5,407.5,1990,
3,F,Jennifer Rodrigues,SBD,FR-O,84,Raw,Chaos,MA,80,130,140,-147.5,140,67.5,72.5,77.5,77.5,160,170,-177.5,170,387.5,1982,
4,F,Shauna Leavitt,SBD,FR-O,84,Raw,UNA,MA,80.4,142.5,147.5,-152.5,147.5,-70,70,72.5,72.5,155,160,165,165,385,1989,
5,F,Jami Hicks,SBD,FR-O,84,Raw,Chaos,MA,79.1,-105,105,-110,105,55,60,-62.5,60,115,122.5,130,130,295,1980,
6,F,Bridget Fordham,SBD,FR-O,84,Raw,UNA,NH,78,92.5,100,-105,100,57.5,62.5,65,65,107.5,120,127.5,127.5,292.5,1995,
7,F,Corissa Strange,SBD,FR-O,84,Raw,UNA,MA,82.8,85,92.5,-100,92.5,55,-60,-60,55,120,127.5,132.5,132.5,280,1989,
8,F,Alexandra Soleil Bornstein,SBD,FR-O,84,Raw,NL,MN,74.2,82.5,87.5,95,95,42.5,-47.5,-50,42.5,117.5,127.5,135,135,272.5,1991,
9,F,Angeliki Chiti,SBD,FR-O,84,Raw,UNA,NY,74.2,-82.5,82.5,92.5,92.5,45,47.5,55,55,100,110,122.5,122.5,270,1994,
10,F,Deb Mason,SBD,FR-O,84,Raw,NL,RI,78.2,-80,80,85,85,-45,50,-52.5,50,117.5,122.5,-127.5,122.5,257.5,1956,
11,F,Heather Rykowski,SBD,FR-O,84,Raw,CWC,MA,77.8,77.5,85,92.5,92.5,37.5,-40,40,40,92.5,102.5,-112.5,102.5,235,1979,
1,F,Samantha Cohen,SBD,FR-O,84+,Raw,BAY,MA,84.5,150,160,170,170,90,100,105,105,175,195,215,215,490,1981,
2,F,Y'Deidre Greene,SBD,FR-O,84+,Raw,CCG,MA,88.2,145,155,165,165,102.5,110,-115,110,190,202.5,-217.5,202.5,477.5,1990,
3,F,Noelle Lustwerk,SBD,FR-O,84+,Raw,UNA,MA,88.4,142.5,152.5,-162.5,152.5,60,65,-72.5,65,155,167.5,-182.5,167.5,385,1995,
1,F,Katie An,SBD,FR-T,63,Raw,FHS,MA,62.4,75,85,95,95,42.5,-47.5,47.5,47.5,92.5,102.5,110,110,252.5,1998,
1,F,Sophie Emond,SBD,FR-Y,47,Raw,Chaos,MA,45.5,60,65,70,70,37.5,-45,45,45,70,77.5,82.5,82.5,197.5,2003,
1,M,Caleb Smith #5,BD,MR-Jr,74,Raw,UNA,NY,73,,,,,127.5,135,-137.5,135,195,212.5,,212.5,347.5,1993,
1,M,Caleb Smith #5,BD,MR-O,74,Raw,UNA,NY,73,,,,,127.5,135,-137.5,135,195,212.5,,212.5,347.5,1993,
2,M,Erwin Castaneda,BD,MR-O,74,Raw,NL,RI,72.6,,,,,112.5,120,122.5,122.5,200,212.5,-225,212.5,335,1985,
1,M,Royce Claflin,BD,MR-O,93,Raw,PT,NH,83.4,,,,,132.5,137.5,140,140,165,175,182.5,182.5,322.5,1983,
2,M,Jeffrey Page,BD,MR-O,93,Raw,Vo,NH,92.6,,,,,-142.5,142.5,-147.5,142.5,102.5,120,142.5,142.5,285,1989,
1,M,Charles Ocampo,BD,MR-O,105,Raw,UNA,MA,103.8,,,,,145,155,-157.5,155,215,230,240,240,395,1990,
1,M,Eric Wright,BD,MR-O,120,Raw,CCG,MA,119,,,,,160,167.5,172.5,172.5,225,237.5,250,250,422.5,1966,
