Place,Name,Sex,BirthDate,Age,Country,State,Equipment,Division,BodyweightKg,WeightClassKg,Squat1Kg,Squat2Kg,Squat3Kg,Best3SquatKg,Bench1Kg,Bench2Kg,Bench3Kg,Bench4Kg,Best3BenchKg,Deadlift1Kg,Deadlift2Kg,Deadlift3Kg,Best3DeadliftKg,TotalKg,Event
1,Kristy McCaskill,F,,40,USA,MO,Raw,Masters 40-44,129.64,100+,68.04,106.59,-131.54,106.59,45.36,68.04,83.91,-88.45,83.91,68.04,106.59,129.27,129.27,319.78,SBD
1,Jessie Gerhardt,F,,48,,,Raw,Masters 45-49,97.43,100,61.23,-65.77,-72.57,61.23,47.63,54.43,-63.5,,54.43,68.04,90.72,-102.06,90.72,206.38,SBD
1,Merideth Metcalf,F,,29,USA,MO,Wraps,Open,58.79,60,102.06,106.59,-111.13,106.59,45.36,47.63,-52.16,,47.63,102.06,111.13,-117.93,111.13,265.35,SBD
1,Jeff Platz,M,,54,USA,MO,Raw,Masters 50-54,106.68,110,158.76,163.29,167.83,167.83,102.06,-113.4,-113.4,,102.06,204.12,213.19,-226.8,213.19,483.08,SBD
1,Kevin Wang,M,,17,USA,MO,Raw,Teen 16-17,63.23,67.5,88.45,92.99,102.06,102.06,79.38,-81.65,86.18,,86.18,129.27,133.81,138.35,138.35,326.59,SBD
1,Christopher Wilkins,M,,33,USA,MO,Raw,Veterans,108.77,110,204.12,215.46,233.6,233.6,149.69,156.49,-163.29,,156.49,244.94,258.55,272.16,272.16,662.24,SBD
1,Derek Drenberg,M,,18,USA,MO,Raw,Teen 18-19,79.11,82.5,,,,,,,,,,129.27,136.08,142.88,142.88,142.88,D
