Division,WeightClassKg,Place,Name,Team,BodyweightKg,Best3SquatKg,Best3BenchKg,Best3DeadliftKg,TotalKg,Equipment,Event,Sex
Boys,51.71,1,Shimar Jennings,Plainview,49.9,136.08,74.84,140.61,351.53,Single-ply,SBD,M
Boys,51.71,2,Lane Miller,Dalhart,46.9,104.33,38.56,108.86,251.74,Single-ply,SBD,M
Boys,51.71,DQ,Koby Ortiz,Dalhart,,151.95,92.99,151.95,,Single-ply,SBD,M
Boys,55.79,1,Jamie Salgado,Plainview,54.39,226.8,90.72,199.58,517.1,Single-ply,SBD,M
Boys,55.79,2,Elijah Saldana,Lubbock Monterey,54.79,124.74,72.57,129.27,326.59,Single-ply,SBD,M
Boys,55.79,3,Brian Gomez,Lubbock Monterey,55.07,102.06,77.11,129.27,308.44,Single-ply,SBD,M
Boys,55.79,4,David Denton,Wolfforth Frenship,55.79,106.59,65.77,120.2,292.57,Single-ply,SBD,M
Boys,55.79,5,Ryan Bybee,Dumas,54.52,102.06,63.5,120.2,285.76,Single-ply,SBD,M
Boys,59.87,1,Dimas Rodriguez,Plainview,58.88,136.08,92.99,136.08,365.14,Single-ply,SBD,M
Boys,59.87,2,Albert Servin,Lubbock Monterey,56.7,117.93,83.91,158.76,360.61,Single-ply,SBD,M
Boys,59.87,3,Andrew Feese,Dumas,59.6,113.4,70.31,136.08,319.78,Single-ply,SBD,M
Boys,59.87,4,Johnny Gonzales,Lubbock Monterey,56.06,111.13,77.11,129.27,317.51,Single-ply,SBD,M
Boys,67.13,1,Aaron Khaleeq,Plainview,66.59,181.44,111.13,183.7,476.27,Single-ply,SBD,M
Boys,67.13,2,Jose Villalobos,Dalhart,64.23,149.69,90.72,179.17,419.57,Single-ply,SBD,M
Boys,67.13,3,Casey Sanders,Wolfforth Frenship,66.09,163.29,90.72,158.76,412.77,Single-ply,SBD,M
Boys,67.13,4,Eric Davis,Lubbock Monterey,65,154.22,86.18,163.29,403.7,Single-ply,SBD,M
Boys,67.13,5,Jordan Sircable,Wolfforth Frenship,64.18,142.88,72.57,127.01,342.46,Single-ply,SBD,M
Boys,67.13,6,Ismael Garza,Lubbock,63.32,113.4,90.72,136.08,340.19,Single-ply,SBD,M
Boys,67.13,7,Billy Cornish,Lubbock Monterey,64.95,117.93,95.25,122.47,335.66,Single-ply,SBD,M
Boys,67.13,8,Doyle Mills,Lubbock Monterey,61.96,115.67,58.97,142.88,317.51,Single-ply,SBD,M
Boys,67.13,9,Dillon Stevens,Wolfforth Frenship,66.45,113.4,72.57,127.01,312.98,Single-ply,SBD,M
Boys,67.13,10,Logan Smith #6,Wolfforth Frenship,66.22,120.2,58.97,124.74,303.91,Single-ply,SBD,M
Boys,67.13,DQ,Keefe Gallagher,Lubbock,63.96,,74.84,102.06,,Single-ply,SBD,M
Boys,67.13,DQ,Victor Plasencia,Lubbock Monterey,67.13,99.79,61.23,124.74,,Single-ply,SBD,M
Boys,74.84,1,Justin Pichardo,Plainview,74.57,226.8,122.47,213.19,562.45,Single-ply,SBD,M
Boys,74.84,2,Alan Rivera,Plainview,72.03,208.65,117.93,204.12,530.7,Single-ply,SBD,M
Boys,74.84,3,Thomas Walker,Lubbock Monterey,71.35,188.24,102.06,176.9,467.2,Single-ply,SBD,M
Boys,74.84,4,Brad Thompson,Lubbock Monterey,74.39,179.17,102.06,185.97,467.2,Single-ply,SBD,M
Boys,74.84,5,Zach Moore #2,Lubbock Monterey,68.76,167.83,104.33,174.63,446.79,Single-ply,SBD,M
Boys,74.84,6,Logan Claborn,Dalhart,73.57,174.63,106.59,165.56,446.79,Single-ply,SBD,M
Boys,74.84,7,Joseph Jaramillo,Lubbock Monterey,71.67,174.63,90.72,170.1,435.45,Single-ply,SBD,M
Boys,74.84,8,Landon Oelke,Dalhart,71.53,167.83,79.38,183.7,430.91,Single-ply,SBD,M
Boys,74.84,9,Aldo Marquez,Plainview,73.07,147.42,86.18,154.22,387.82,Single-ply,SBD,M
Boys,74.84,10,Angel Martinez #9,Lubbock Monterey,68.4,131.54,79.38,165.56,376.48,Single-ply,SBD,M
Boys,74.84,11,Conner MacNair,Wolfforth Frenship,72.08,138.35,79.38,158.76,376.48,Single-ply,SBD,M
Boys,74.84,12,Roderick Wiggins,Lubbock,72.12,136.08,95.25,136.08,367.41,Single-ply,SBD,M
Boys,74.84,13,Justin Robinson,Wolfforth Frenship,68.67,142.88,79.38,142.88,365.14,Single-ply,SBD,M
Boys,74.84,14,William Rattan,Wolfforth Frenship,68.49,124.74,88.45,142.88,356.07,Single-ply,SBD,M
Boys,74.84,15,Landon McClellan,Lubbock Coronado,71.62,117.93,88.45,142.88,349.27,Single-ply,SBD,M
Boys,82.1,1,Tanner Arnold,Dumas,80.42,167.83,111.13,204.12,483.08,Single-ply,SBD,M
Boys,82.1,2,Isaac Moran,Dumas,79.83,176.9,95.25,195.04,467.2,Single-ply,SBD,M
Boys,82.1,3,Dillon Johnson,Dumas,82.01,151.95,102.06,181.44,435.45,Single-ply,SBD,M
Boys,82.1,4,Jordan Reilly,Lubbock Coronado,79.38,136.08,95.25,158.76,390.09,Single-ply,SBD,M
Boys,82.1,5,Jake Donaho,Lubbock Coronado,81.06,136.08,95.25,149.69,381.02,Single-ply,SBD,M
Boys,82.1,6,Broderick Wiggins,Lubbock,78.02,136.08,95.25,136.08,367.41,Single-ply,SBD,M
Boys,82.1,7,Brandon Martinez,Lubbock,75.3,133.81,83.91,136.08,353.8,Single-ply,SBD,M
Boys,82.1,8,Jared Francis,Lubbock Coronado,78.74,117.93,83.91,140.61,342.46,Single-ply,SBD,M
Boys,89.81,1,Andrew Mendez,Wolfforth Frenship,86.41,179.17,90.72,183.7,453.59,Single-ply,SBD,M
Boys,89.81,2,Caleb Lira,Lubbock Coronado,86.68,170.1,106.59,170.1,446.79,Single-ply,SBD,M
Boys,89.81,3,Carlos Hernandez #14,Lubbock,82.55,158.76,108.86,158.76,426.38,Single-ply,SBD,M
Boys,89.81,4,Eric Medrano,Wolfforth Frenship,87.09,158.76,102.06,154.22,415.04,Single-ply,SBD,M
Boys,89.81,5,Daniel Diaz,Wolfforth Frenship,88.04,142.88,95.25,142.88,381.02,Single-ply,SBD,M
Boys,89.81,6,Jonathan Trevino,Lubbock,82.55,142.88,83.91,131.54,358.34,Single-ply,SBD,M
Boys,89.81,7,Adone Trevino,Lubbock Monterey,84.23,158.76,,165.56,324.32,Single-ply,SD,M
Boys,89.81,8,Banard Jones,Lubbock,86.18,142.88,,145.15,288.03,Single-ply,SD,M
Boys,99.79,1,Frank Perez,Plainview,93.08,222.26,104.33,226.8,553.38,Single-ply,SBD,M
Boys,99.79,2,Santiago Fabela,Plainview,95.8,210.92,131.54,192.78,535.24,Single-ply,SBD,M
Boys,99.79,3,Zach Subealdea,Plainview,99.16,206.38,120.2,208.65,535.24,Single-ply,SBD,M
Boys,99.79,4,Josh Chapa,Plainview,97.57,183.7,138.35,170.1,492.15,Single-ply,SBD,M
Boys,99.79,5,Roman Padilla,Lubbock,95.25,165.56,120.2,195.04,480.81,Single-ply,SBD,M
Boys,99.79,6,Danny Montelongo,Plainview,94.89,185.97,111.13,174.63,471.74,Single-ply,SBD,M
Boys,99.79,7,Alvino Flores,Plainview,98.02,181.44,102.06,183.7,467.2,Single-ply,SBD,M
Boys,99.79,8,Gilbert Flores,Lubbock,93.35,142.88,97.52,163.29,403.7,Single-ply,SBD,M
Boys,99.79,9,Austin Wills,Wolfforth Frenship,98.52,142.88,88.45,158.76,390.09,Single-ply,SBD,M
Boys,99.79,10,Matt Foster,Wolfforth Frenship,95.21,151.95,65.77,145.15,362.87,Single-ply,SBD,M
Boys,99.79,11,Grant O'Shae,Wolfforth Frenship,99.52,136.08,61.23,140.61,337.93,Single-ply,SBD,M
Boys,99.79,12,Tony Alvarez,Lubbock,92.53,129.27,83.91,122.47,335.66,Single-ply,SBD,M
Boys,109.77,1,Ramiro Rodriguez,Lubbock Monterey,104.73,226.8,142.88,204.12,573.79,Single-ply,SBD,M
Boys,109.77,2,Angelo Samarippa,Plainview,102.1,206.38,158.76,188.24,553.38,Single-ply,SBD,M
Boys,109.77,3,Austin Warren,Lubbock Monterey,105.69,204.12,133.81,195.04,532.97,Single-ply,SBD,M
Boys,124.74,4,Erasmo Mendoza,Dumas,110,206.38,127.01,181.44,514.83,Single-ply,SBD,M
Boys,109.77,DQ,Marcos Hinojos,Plainview,107.37,,,,,Single-ply,SBD,M
Boys,109.77,DQ,John Vanover,Wolfforth Frenship,109.77,172.37,111.13,158.76,,Single-ply,SBD,M
Boys,109.77,DQ,Chris Cobos,Lubbock,105.23,172.37,127.01,,,Single-ply,SBD,M
Boys,124.74,1,Rayce Savage,Wolfforth Frenship,111.08,226.8,113.4,188.24,528.44,Single-ply,SBD,M
Boys,124.74,2,Cameron Ford,Dalhart,116.62,215.46,106.59,206.38,528.44,Single-ply,SBD,M
Boys,124.74,3,Cesar Ruiz,Dumas,118.48,195.04,129.27,204.12,528.44,Single-ply,SBD,M
Boys,124.74,5,Anthony Martinez #15,Wolfforth Frenship,111.45,158.76,104.33,158.76,421.84,Single-ply,SBD,M
Boys,124.74,6,Raul Lopez,Lubbock,111.13,136.08,111.13,163.29,410.5,Single-ply,SBD,M
Boys,124.74,7,Taylor York,Wolfforth Frenship,123.01,142.88,86.18,117.93,347,Single-ply,SBD,M
Boys,124.74,DQ,Michael Garcia,Plainview,124.74,,,,,Single-ply,SBD,M
Boys,124.74+,1,Juan Delgado,Dalhart,127.01,183.7,115.67,183.7,483.08,Single-ply,SBD,M
Boys,124.74+,2,Larson Crume,Wolfforth Frenship,137.89,181.44,99.79,172.37,453.59,Single-ply,SBD,M
Boys,124.74+,3,Josh DeShazo,Lubbock,127.64,149.69,95.25,163.29,408.23,Single-ply,SBD,M
Boys,124.74+,4,Jordan Cortez,Lubbock,127.91,70.31,61.23,108.86,240.4,Single-ply,SBD,M
