Division,WeightClassKg,Place,Name,Team,BodyweightKg,Best3SquatKg,Best3BenchKg,Best3DeadliftKg,TotalKg,Equipment,Event,Sex
Boys,51.71,1,Edward Green,Daingerfield,51.17,117.93,65.77,124.74,308.44,Single-ply,SBD,M
Boys,51.71,DQ,Colton Cook,Caddo Mills,47.45,95.25,,,,Single-ply,SBD,M
Boys,51.71,DQ,Dalton Krodle,Commerce,41.64,68.04,,,,Single-ply,SBD,M
Boys,51.71,DQ,Josue Leon,Sulphur Springs,48.53,,,,,Single-ply,SBD,M
Boys,55.79,1,Justin Gunderson,Sulphur Springs,54.43,124.74,68.04,127.01,319.78,Single-ply,SBD,M
Boys,55.79,2,Edgar Camacho,Emory Rains,55.79,97.52,54.43,104.33,256.28,Single-ply,SBD,M
Boys,55.79,3,Justin Talley,Quinlan Boles,53.98,74.84,54.43,117.93,247.21,Single-ply,SBD,M
Boys,55.79,DQ,Ryan McCain,Paris Chisum,54.43,120.2,,,,Single-ply,SBD,M
Boys,59.87,1,Taylor Link,Sulphur Springs,59.06,165.56,106.59,165.56,437.72,Single-ply,SBD,M
Boys,59.87,2,Keith Hopkins,Daingerfield,56.25,142.88,79.38,163.29,385.55,Single-ply,SBD,M
Boys,59.87,3,Dakota Monroe,Caddo Mills,56.25,129.27,72.57,122.47,324.32,Single-ply,SBD,M
Boys,59.87,4,Kason Freelen,Lone Oak,57.79,117.93,74.84,131.54,324.32,Single-ply,SBD,M
Boys,59.87,5,Jake Magee,Caddo Mills,56.25,113.4,79.38,122.47,315.25,Single-ply,SBD,M
Boys,67.13,6,Sam Reid,Lone Oak,60.06,102.06,70.31,115.67,288.03,Single-ply,SBD,M
Boys,59.87,DQ,Nate Opper,Lone Oak,58.24,92.99,,,,Single-ply,SBD,M
Boys,67.13,1,Marques Newby,Caddo Mills,64.86,192.78,90.72,181.44,464.93,Single-ply,SBD,M
Boys,67.13,2,Johnathan Carlisle,Sulphur Springs,64.86,181.44,95.25,174.63,451.32,Single-ply,SBD,M
Boys,67.13,3,Ty Huie,Cooper,65.32,158.76,104.33,170.1,433.18,Single-ply,SBD,M
Boys,67.13,4,Cj Schumann,Lone Oak,66.32,176.9,88.45,151.95,417.3,Single-ply,SBD,M
Boys,67.13,5,Christian Atkinson,Canton,64.41,170.1,81.65,163.29,415.04,Single-ply,SBD,M
Boys,67.13,6,Dustin Fry,Emory Rains,64.95,172.37,70.31,172.37,415.04,Single-ply,SBD,M
Boys,67.13,7,Fillip Gann,Paris Chisum,62.69,165.56,92.99,142.88,401.43,Single-ply,SBD,M
Boys,67.13,8,Kyle Kiser,Emory Rains,63.23,142.88,90.72,156.49,390.09,Single-ply,SBD,M
Boys,74.84,9,Cody Prince,Lone Oak,67.22,142.88,95.25,151.95,390.09,Single-ply,SBD,M
Boys,67.13,10,Marcus Cantera,Commerce,64.95,124.74,95.25,154.22,374.21,Single-ply,SBD,M
Boys,67.13,11,Buck Wilson,Commerce,61.6,124.74,74.84,140.61,340.19,Single-ply,SBD,M
Boys,74.84,12,Ty Tolleson,Lone Oak,67.22,140.61,70.31,124.74,335.66,Single-ply,SBD,M
Boys,67.13,13,Jace Hart,Lone Oak,62.05,124.74,61.23,129.27,315.25,Single-ply,SBD,M
Boys,67.13,14,Hayden Malone,Lone Oak,63.05,111.13,81.65,113.4,306.17,Single-ply,SBD,M
Boys,67.13,15,Isac Davis,Lone Oak,64.68,83.91,54.43,95.25,233.6,Single-ply,SBD,M
Boys,74.84,1,Caleb Skahan,Caddo Mills,70.58,213.19,127.01,208.65,548.85,Single-ply,SBD,M
Boys,74.84,2,John Robin Rivera,Sulphur Springs,69.13,176.9,111.13,210.92,498.95,Single-ply,SBD,M
Boys,74.84,3,LaMarce Lafayette,Daingerfield,74.57,197.31,113.4,188.24,498.95,Single-ply,SBD,M
Boys,74.84,4,Austin Davidson,Caddo Mills,68.31,195.04,113.4,172.37,480.81,Single-ply,SBD,M
Boys,74.84,5,Brad Gann,Paris Chisum,67.77,188.24,104.33,174.63,467.2,Single-ply,SBD,M
Boys,74.84,6,Mason Justiss,Paris Chisum,73.03,185.97,117.93,158.76,462.66,Single-ply,SBD,M
Boys,74.84,7,Christian Tucker,Emory Rains,72.03,167.83,102.06,183.7,453.59,Single-ply,SBD,M
Boys,74.84,8,Gabe Conner,Commerce,74.75,158.76,97.52,181.44,437.72,Single-ply,SBD,M
Boys,74.84,9,Reece Sumner,Canton,71.21,158.76,83.91,151.95,394.63,Single-ply,SBD,M
Boys,74.84,10,Bryce Sanford,Canton,73.57,154.22,88.45,151.95,394.63,Single-ply,SBD,M
Boys,74.84,11,Daniel Lopez #10,Canton,69.94,145.15,92.99,154.22,392.36,Single-ply,SBD,M
Boys,74.84,12,Tyson White,Lone Oak,73.57,158.76,74.84,151.95,385.55,Single-ply,SBD,M
Boys,74.84,13,Mike Lay,Commerce,74.84,142.88,99.79,142.88,385.55,Single-ply,SBD,M
Boys,74.84,14,Jon Clark #2,Lone Oak,74.03,124.74,79.38,156.49,360.61,Single-ply,SBD,M
Boys,74.84,15,Dustin Ashley,Canton,73.21,120.2,88.45,145.15,353.8,Single-ply,SBD,M
Boys,74.84,16,Dylan Horn,Canton,69.85,127.01,97.52,127.01,351.53,Single-ply,SBD,M
Boys,74.84,17,Tarik Crear,Commerce,68.58,120.2,83.91,140.61,344.73,Single-ply,SBD,M
Boys,74.84,18,Tanner Crutcher,Cooper,74.3,124.74,77.11,138.35,340.19,Single-ply,SBD,M
Boys,74.84,19,Tyler White #5,Lone Oak,70.31,117.93,74.84,127.01,319.78,Single-ply,SBD,M
Boys,74.84,DQ,Blake Langford,Lone Oak,74.62,90.72,,,,Single-ply,SBD,M
Boys,74.84,DQ,Aaron Cummings,Lone Oak,73.16,149.69,104.33,,,Single-ply,SBD,M
Boys,82.1,1,Joe Scott,Sulphur Springs,78.93,238.14,140.61,217.72,596.47,Single-ply,SBD,M
Boys,82.1,2,Garret Dunlap,Lone Oak,81.19,188.24,124.74,188.24,501.22,Single-ply,SBD,M
Boys,82.1,3,Caleb Womack,Lone Oak,77.47,181.44,111.13,192.78,485.34,Single-ply,SBD,M
Boys,82.1,4,Jarred Williams,Daingerfield,77.38,174.63,106.59,183.7,464.93,Single-ply,SBD,M
Boys,82.1,5,Taylor Ruiz,Emory Rains,78.56,167.83,113.4,181.44,462.66,Single-ply,SBD,M
Boys,82.1,6,Trey Adair,Sulphur Springs,75.66,181.44,92.99,165.56,439.98,Single-ply,SBD,M
Boys,82.1,7,Caleb Whitley,Commerce,75.66,158.76,102.06,156.49,417.3,Single-ply,SBD,M
Boys,82.1,8,Tad Gholston,Daingerfield,75.84,165.56,92.99,156.49,415.04,Single-ply,SBD,M
Boys,82.1,9,Tyler McClain,Lone Oak,78.56,149.69,92.99,149.69,392.36,Single-ply,SBD,M
Boys,82.1,10,Jarod Hague,Canton,76.84,151.95,83.91,149.69,385.55,Single-ply,SBD,M
Boys,89.81,1,Triston Leaks,Canton,89.63,213.19,142.88,210.92,566.99,Single-ply,SBD,M
Boys,89.81,2,Nelson Welk,Caddo Mills,86.91,235.87,117.93,192.78,546.58,Single-ply,SBD,M
Boys,89.81,3,Aaren Arnold,Paris Chisum,85.18,210.92,102.06,210.92,523.9,Single-ply,SBD,M
Boys,89.81,4,Jimmy Hill,Caddo Mills,86.91,201.85,111.13,161.03,474,Single-ply,SBD,M
Boys,89.81,5,Rustin Cryer,Emory Rains,85.55,183.7,104.33,179.17,467.2,Single-ply,SBD,M
Boys,89.81,6,Tre'Von Roy,Sulphur Springs,82.92,181.44,92.99,190.51,464.93,Single-ply,SBD,M
Boys,89.81,7,KaLynn Miller,Paris Chisum,85.91,183.7,97.52,158.76,439.98,Single-ply,SBD,M
Boys,89.81,8,Jon Boehlar,Paris Chisum,85.09,172.37,88.45,136.08,396.89,Single-ply,SBD,M
Boys,89.81,9,Richard Crouch #2,Commerce,89.27,124.74,97.52,120.2,342.46,Single-ply,SBD,M
Boys,99.79,DQ,Chris Robertson,Daingerfield,89.99,,,,,Single-ply,SBD,M
Boys,89.81,DQ,Brant Sims,Quinlan Boles,86.73,172.37,,,,Single-ply,SBD,M
Boys,99.79,1,Kyle Hasley,Paris Chisum,94.35,204.12,120.2,199.58,523.9,Single-ply,SBD,M
Boys,99.79,2,Ryan Wettelard,Quinlan Boles,90.72,172.37,104.33,181.44,458.13,Single-ply,SBD,M
Boys,99.79,3,Cortez Crosby,Commerce,98.25,124.74,117.93,181.44,424.11,Single-ply,SBD,M
Boys,99.79,4,Keaton Smith,Daingerfield,96.16,165.56,97.52,151.95,415.04,Single-ply,SBD,M
Boys,99.79,5,Ty Lomas,Daingerfield,90.81,151.95,83.91,151.95,387.82,Single-ply,SBD,M
Boys,99.79,DQ,John Smith #9,Daingerfield,90.36,145.15,,,,Single-ply,SBD,M
Boys,109.77,1,Austin Reynolds,Canton,104.69,249.48,138.35,226.8,614.62,Single-ply,SBD,M
Boys,109.77,2,Ben Jaeger,Emory Rains,105.23,192.78,129.27,183.7,505.76,Single-ply,SBD,M
Boys,109.77,3,Blake Parnell,Sulphur Springs,103.06,149.69,97.52,167.83,415.04,Single-ply,SBD,M
Boys,109.77,4,Jake Shannon,Commerce,104.05,156.49,88.45,142.88,387.82,Single-ply,SBD,M
Boys,109.77,DQ,Chad Evans,Sulphur Springs,103.42,188.24,,,,Single-ply,SBD,M
Boys,124.74,1,Justin Reader,Caddo Mills,117.66,294.84,181.44,249.48,725.75,Single-ply,SBD,M
Boys,124.74,2,Andrew Burton,Sulphur Springs,113.22,278.96,170.1,265.35,714.41,Single-ply,SBD,M
Boys,124.74,3,Jeremy Dowdy,Emory Rains,120.47,272.16,149.69,219.99,641.83,Single-ply,SBD,M
Boys,124.74,4,Tyler Pettus,Quinlan Boles,124.19,226.8,136.08,215.46,578.33,Single-ply,SBD,M
Boys,124.74,5,Brandon Gholston,Daingerfield,121.29,215.46,140.61,188.24,544.31,Single-ply,SBD,M
Boys,124.74,6,Lane McKenzie,Paris Chisum,111.86,204.12,131.54,170.1,505.76,Single-ply,SBD,M
Boys,124.74,7,Mike Bruce,Commerce,123.38,204.12,124.74,170.1,498.95,Single-ply,SBD,M
Boys,124.74,8,Tanner Brixey,Emory Rains,110.68,204.12,113.4,147.42,464.93,Single-ply,SBD,M
Boys,124.74,9,Jesse Hanson,Daingerfield,118.66,181.44,115.67,161.03,458.13,Single-ply,SBD,M
Boys,124.74,10,Stieferman,Quinlan Boles,111.13,131.54,97.52,138.35,367.41,Single-ply,SBD,M
Boys,124.74+,1,Johnathan Northcutt,Emory Rains,129.91,238.14,140.61,215.46,594.21,Single-ply,SBD,M
Boys,124.74+,2,Kody Miles,Commerce,139.43,204.12,124.74,181.44,510.29,Single-ply,SBD,M
Boys,124.74+,3,Jordan Baxley,Sulphur Springs,127.91,188.24,102.06,170.1,460.4,Single-ply,SBD,M
Boys,124.74+,DQ,Holden Jenkins,Cooper,128,224.53,147.42,,,Single-ply,SBD,M
