Division,WeightClassKg,Place,Name,Team,BodyweightKg,Best3SquatKg,Best3BenchKg,Best3DeadliftKg,TotalKg,Equipment,Event,Sex
Boys,51.71,1,Isai Cerrios,Sanger,50.8,102.06,65.77,115.67,283.5,Single-ply,SBD,M
Boys,55.79,2,Cole Younkers,Pilot Point,51.75,63.5,45.36,90.72,199.58,Single-ply,SBD,M
Boys,55.79,1,Sebastian Guerra,Pilot Point,55.79,136.08,72.57,136.08,344.73,Single-ply,SBD,M
Boys,55.79,2,Walter Pyron,Sanger,55.79,97.52,61.23,127.01,285.76,Single-ply,SBD,M
Boys,59.87,3,Sullivan Ford,Aubrey,55.88,58.97,52.16,90.72,201.85,Single-ply,SBD,M
Boys,59.87,1,Stormy Box,Pilot Point,59.87,129.27,83.91,158.76,371.95,Single-ply,SBD,M
Boys,67.13,2,Robert Delatorre,Aubrey,60.1,122.47,77.11,131.54,331.12,Single-ply,SBD,M
Boys,67.13,3,Charlie Radford,Aubrey,60.1,113.4,77.11,140.61,331.12,Single-ply,SBD,M
Boys,59.87,4,Tyler Williams,Aubrey,56.25,122.47,58.97,117.93,299.37,Single-ply,SBD,M
Boys,67.13,1,Eric Rodriguez,Aubrey,66.68,188.24,106.59,183.7,478.54,Single-ply,SBD,M
Boys,67.13,2,Spencer Tilley,Pilot Point,66.04,176.9,115.67,183.7,476.27,Single-ply,SBD,M
Boys,67.13,3,Will Carter,Sanger,62.01,167.83,102.06,181.44,451.32,Single-ply,SBD,M
Boys,67.13,4,Houston Wyatt,Sanger,66.68,158.76,83.91,170.1,412.77,Single-ply,SBD,M
Boys,67.13,5,Juan Salinas #3,Gainesville,65.32,133.81,92.99,156.49,383.29,Single-ply,SBD,M
Boys,67.13,6,Martin Sosa,Gainesville,61.69,142.88,79.38,142.88,365.14,Single-ply,SBD,M
Boys,67.13,7,Nick Apperson,Aubrey,63.5,108.86,52.16,117.93,278.96,Single-ply,SBD,M
Boys,67.13,8,Jorge Alvarado,Gainesville,63.05,,,113.4,113.4,Single-ply,D,M
Boys,74.84,1,Adrian Guay,Sanger,73.03,226.8,117.93,217.72,562.45,Single-ply,SBD,M
Boys,74.84,2,Mitchell Erp,Aubrey,70.76,167.83,106.59,149.69,424.11,Single-ply,SBD,M
Boys,74.84,3,Jarrett Wilson,Pilot Point,71.21,165.56,115.67,129.27,410.5,Single-ply,SBD,M
Boys,74.84,4,Brandon Price,Pilot Point,69.85,136.08,70.31,147.42,353.8,Single-ply,SBD,M
Boys,74.84,5,Cody Mack,Sanger,69.4,127.01,65.77,122.47,315.25,Single-ply,SBD,M
Boys,74.84,6,Dylan Hartsfield,Sanger,71.21,115.67,68.04,131.54,315.25,Single-ply,SBD,M
Boys,74.84,DQ,Hunter Hall,Gainesville,68.95,,,,,Single-ply,SBD,M
Boys,82.1,1,John Eskue,Sanger,76.2,199.58,115.67,192.78,508.02,Single-ply,SBD,M
Boys,82.1,2,Dexter Loza,Aubrey,81.19,185.97,136.08,181.44,503.49,Single-ply,SBD,M
Boys,82.1,3,Jon Groff,Pilot Point,80.29,188.24,124.74,185.97,498.95,Single-ply,SBD,M
Boys,82.1,4,Chris White,Gainesville,79.83,181.44,97.52,158.76,437.72,Single-ply,SBD,M
Boys,82.1,5,Devin Teeters,Sanger,81.19,154.22,102.06,172.37,428.64,Single-ply,SBD,M
Boys,82.1,6,Paul Scott,Pilot Point,78.02,158.76,102.06,147.42,408.23,Single-ply,SBD,M
Boys,82.1,DQ,Adam Berryman,Gainesville,78.47,,,,,Single-ply,SBD,M
Boys,89.81,1,Derek Shelby,Sanger,85.73,188.24,140.61,197.31,526.17,Single-ply,SBD,M
Boys,89.81,2,Jacobi Verdin,Sanger,83.91,172.37,104.33,170.1,446.79,Single-ply,SBD,M
Boys,89.81,3,Donovan Inman,Aubrey,82.37,163.29,90.72,181.44,435.45,Single-ply,SBD,M
Boys,89.81,4,Sam Heath,Aubrey,83.01,158.76,95.25,158.76,412.77,Single-ply,SBD,M
Boys,89.81,5,Brandon Gehrke,Sanger,88.9,145.15,83.91,145.15,374.21,Single-ply,SBD,M
Boys,89.81,6,Alex Gibbs,Pilot Point,84.82,136.08,79.38,149.69,365.14,Single-ply,SBD,M
Boys,89.81,7,Grayson Briney,Sanger,88,124.74,79.38,151.95,356.07,Single-ply,SBD,M
Boys,99.79,1,Nick Conklin,Sanger,92.53,233.6,142.88,233.6,610.08,Single-ply,SBD,M
Boys,99.79,2,Will Allen,Pilot Point,97.98,190.51,124.74,192.78,508.02,Single-ply,SBD,M
Boys,99.79,3,Jacob Ortaloni,Aubrey,92.53,145.15,83.91,161.03,390.09,Single-ply,SBD,M
Boys,99.79,4,Clay Worthy,Sanger,92.99,117.93,72.57,140.61,331.12,Single-ply,SBD,M
Boys,99.79,DQ,Jared Boswell,Gainesville,96.16,,,,,Single-ply,SBD,M
Boys,109.77,1,Riley Stottle,Pilot Point,105.6,213.19,163.29,215.46,591.94,Single-ply,SBD,M
Boys,109.77,2,Austen Lange,Sanger,101.15,147.42,90.72,156.49,394.63,Single-ply,SBD,M
Boys,109.77,3,Mason Banks,Gainesville,101.6,158.76,90.72,136.08,385.55,Single-ply,SBD,M
Boys,109.77,4,Dalton Harmon,Sanger,104.33,124.74,99.79,129.27,353.8,Single-ply,SBD,M
Boys,109.77,DQ,Trevin Riel,Gainesville,104.33,,,,,Single-ply,SBD,M
Boys,124.74,1,Kyle Scheffler,Sanger,119.75,208.65,142.88,215.46,566.99,Single-ply,SBD,M
Boys,124.74,2,Matt Poursoltani,Pilot Point,119.75,90.72,249.48,215.46,555.65,Single-ply,SBD,M
Boys,124.74,3,Jorge Anguiano,Pilot Point,120.2,226.8,113.4,165.56,505.76,Single-ply,SBD,M
Boys,124.74,4,Jacob Johnson,Aubrey,112.04,188.24,113.4,181.44,483.08,Single-ply,SBD,M
Boys,124.74,5,Weston Osterman,Aubrey,114.31,151.95,108.86,170.1,430.91,Single-ply,SBD,M
Boys,124.74,DQ,Micheal Durnberger,Gainesville,112.94,,,,,Single-ply,SBD,M
Boys,124.74,DQ,Jesse Wolfe,Gainesville,119.29,,,,,Single-ply,SBD,M
Boys,124.74,DQ,Colt Nelson,Sanger,120.66,,,,,Single-ply,SBD,M
Boys,124.74,DQ,Zach Morris,Sanger,112.04,,,,,Single-ply,SBD,M
Boys,124.74+,1,Rigoberto Benavidez,Pilot Point,143.79,122.47,106.59,142.88,371.95,Single-ply,SBD,M
Boys,124.74+,2,Brian Flowers,Aubrey,145.15,108.86,88.45,170.1,367.41,Single-ply,SBD,M
Boys,124.74+,DQ,Greg Scnieder,Gainesville,134.26,,,,,Single-ply,SBD,M
