Division,WeightClassKg,Place,Name,Team,BodyweightKg,Best3SquatKg,Best3BenchKg,Best3DeadliftKg,TotalKg,Equipment,Event,Sex
Boys,55.79,1,Steven Pham,Sunnyvale,51.8,136.08,72.57,154.22,362.87,Single-ply,SBD,M
Boys,51.71,2,Tyler Lacy,South Garland,49.53,99.79,61.23,122.47,283.5,Single-ply,SBD,M
Boys,51.71,3,Daniel Rubio,Honey Grove,49.26,102.06,45.36,106.59,254.01,Single-ply,SBD,M
Boys,51.71,4,Hunter Caves,Mabank,46.81,97.52,52.16,102.06,251.74,Single-ply,SBD,M
Boys,51.71,5,Ivan Ramirez,North Mesquite,47.63,86.18,40.82,113.4,240.4,Single-ply,SBD,M
Boys,55.79,1,Brandon Thomas,McKinney North,54.98,172.37,90.72,188.24,451.32,Single-ply,SBD,M
Boys,55.79,2,Jordan Estell,North Mesquite,55.7,131.54,70.31,170.1,371.95,Single-ply,SBD,M
Boys,55.79,3,Isaiah Payne,Crandall,55.79,122.47,63.5,170.1,356.07,Single-ply,SBD,M
Boys,59.87,4,Taylor Wayne,Sunnyvale,55.97,127.01,72.57,145.15,344.73,Single-ply,SBD,M
Boys,55.79,5,Nathan Duckworth,Sunnyvale,55.34,140.61,72.57,129.27,342.46,Single-ply,SBD,M
Boys,55.79,6,Cooper Gilliland,Royse City,55.34,102.06,65.77,127.01,294.84,Single-ply,SBD,M
Boys,55.79,7,Brice Ivey,Malakoff,55.7,95.25,56.7,117.93,269.89,Single-ply,SBD,M
Boys,59.87,1,Gerald Van Ess,McKinney North,58.33,163.29,83.91,167.83,415.04,Single-ply,SBD,M
Boys,59.87,2,Austin Dennie,Kemp,57.97,138.35,104.33,161.03,403.7,Single-ply,SBD,M
Boys,59.87,3,Jimmy Kimbrell,Kemp,59.78,156.49,79.38,147.42,383.29,Single-ply,SBD,M
Boys,67.13,4,Trent Fischer,Kemp,60.06,136.08,88.45,149.69,374.21,Single-ply,SBD,M
Boys,59.87,5,Jackie Dang,Garland Rowlett,59.24,124.74,79.38,151.95,356.07,Single-ply,SBD,M
Boys,59.87,6,Josh Sims,South Garland,57.15,136.08,79.38,136.08,351.53,Single-ply,SBD,M
Boys,59.87,7,Matt Cochrane,Mabank,58.6,142.88,70.31,136.08,349.27,Single-ply,SBD,M
Boys,59.87,8,Josh Esquivel,Rockwall-Heath,58.6,120.2,79.38,133.81,333.39,Single-ply,SBD,M
Boys,59.87,9,Trent Cantrell,Mabank,58.06,117.93,63.5,131.54,312.98,Single-ply,SBD,M
Boys,59.87,10,Emmanuel Garnaway,Kerens,59.24,79.38,72.57,131.54,283.5,Single-ply,SBD,M
Boys,59.87,11,Josh Rodriguez,Honey Grove,59.15,102.06,54.43,124.74,281.23,Single-ply,SBD,M
Boys,59.87,DQ,Romandrey Manning,South Garland,56.43,,,,,Single-ply,SBD,M
Boys,67.13,1,Alex Ramsey,Royse City,66.77,204.12,122.47,204.12,530.7,Single-ply,SBD,M
Boys,67.13,2,Casey Crossland,Kemp,66.32,151.95,97.52,181.44,430.91,Single-ply,SBD,M
Boys,67.13,3,Nash Conduff,Garland Sachse,64.41,154.22,99.79,165.56,419.57,Single-ply,SBD,M
Boys,67.13,4,Taylor Gonzalez,Crandall,66.68,145.15,106.59,165.56,417.3,Single-ply,SBD,M
Boys,67.13,5,Jonathan Ennin,Sunnyvale,66.22,151.95,83.91,176.9,412.77,Single-ply,SBD,M
Boys,67.13,6,Cameron Simmons,Royse City,63.05,158.76,102.06,149.69,410.5,Single-ply,SBD,M
Boys,67.13,7,David Rico,North Mesquite,65.86,136.08,86.18,174.63,396.89,Single-ply,SBD,M
Boys,67.13,8,Peter Garcia,Royse City,63.14,151.95,86.18,151.95,390.09,Single-ply,SBD,M
Boys,67.13,9,Tommy Norman,Mabank,66.86,145.15,92.99,147.42,385.55,Single-ply,SBD,M
Boys,67.13,10,Tristan Jordan,Corsicana Mildred,61.05,147.42,90.72,145.15,383.29,Single-ply,SBD,M
Boys,67.13,11,Josh Heflin,North Garland,64.41,136.08,68.04,149.69,353.8,Single-ply,SBD,M
Boys,67.13,12,Christian Pugh,Royse City,65.5,113.4,72.57,133.81,319.78,Single-ply,SBD,M
Boys,67.13,13,Philip Koller,Crandall,64.5,108.86,65.77,136.08,310.71,Single-ply,SBD,M
Boys,67.13,DQ,Oscar Lujan,Kemp,66.32,,,,,Single-ply,SBD,M
Boys,74.84,1,Olice Rogers,Kemp,67.68,204.12,133.81,206.38,544.31,Single-ply,SBD,M
Boys,74.84,2,Colt Conway,Mabank,73.39,208.65,111.13,179.17,498.95,Single-ply,SBD,M
Boys,74.84,3,Garrett Ferguson,Sunnyvale,74.84,183.7,108.86,204.12,496.68,Single-ply,SBD,M
Boys,74.84,4,Cody Coldwell,Sunnyvale,73.03,197.31,102.06,183.7,483.08,Single-ply,SBD,M
Boys,74.84,5,Dominique McBride,North Mesquite,69.94,154.22,92.99,204.12,451.32,Single-ply,SBD,M
Boys,74.84,6,Jordan Fortner,Melissa,73.75,158.76,106.59,185.97,451.32,Single-ply,SBD,M
Boys,74.84,7,Frankie Mowete,South Garland,70.4,156.49,104.33,158.76,419.57,Single-ply,SBD,M
Boys,74.84,8,Jose Garcia #4,Kemp,71.67,138.35,86.18,181.44,405.97,Single-ply,SBD,M
Boys,74.84,9,Dylan Grim,Malakoff,71.94,140.61,90.72,174.63,405.97,Single-ply,SBD,M
Boys,74.84,10,Levi Bettes,Honey Grove,67.49,163.29,81.65,158.76,403.7,Single-ply,SBD,M
Boys,82.1,11,Carter Patrick,Honey Grove,75.02,136.08,92.99,161.03,390.09,Single-ply,SBD,M
Boys,74.84,12,James Flowers,South Garland,71.94,136.08,108.86,142.88,387.82,Single-ply,SBD,M
Boys,74.84,13,Caleb Ratliff,Royse City,70.13,142.88,88.45,124.74,356.07,Single-ply,SBD,M
Boys,74.84,14,Braxton Allen,Crandall,73.12,129.27,74.84,149.69,353.8,Single-ply,SBD,M
Boys,82.1,1,Abdul Khalaf,Sunnyvale,79.83,231.33,136.08,222.26,589.67,Single-ply,SBD,M
Boys,82.1,2,Ramses Gomez,Garland Rowlett,81.56,226.8,149.69,208.65,585.13,Single-ply,SBD,M
Boys,82.1,3,Brice Balous,McKinney North,80.01,195.04,138.35,222.26,555.65,Single-ply,SBD,M
Boys,82.1,4,Tavion Hall,Kerens,79.29,192.78,129.27,231.33,553.38,Single-ply,SBD,M
Boys,82.1,5,Josh Scott,Rockwall-Heath,81.56,217.72,136.08,199.58,553.38,Single-ply,SBD,M
Boys,82.1,6,Anthonhy Wagner,Garland Rowlett,78.74,206.38,124.74,217.72,548.85,Single-ply,SBD,M
Boys,82.1,7,Abraham Garcia,McKinney North,81.37,213.19,117.93,206.38,537.51,Single-ply,SBD,M
Boys,82.1,8,Stacy Sublett,North Mesquite,80.38,204.12,102.06,215.46,521.63,Single-ply,SBD,M
Boys,82.1,9,Zane Koskelin,Mabank,81.56,192.78,117.93,190.51,501.22,Single-ply,SBD,M
Boys,82.1,10,Johnson Dang,Garland Rowlett,76.57,195.04,104.33,188.24,487.61,Single-ply,SBD,M
Boys,82.1,11,Desmond Meredith,Garland Rowlett,77.56,174.63,102.06,208.65,485.34,Single-ply,SBD,M
Boys,82.1,12,Gavin Burl,Garland Sachse,78.11,181.44,113.4,183.7,478.54,Single-ply,SBD,M
Boys,82.1,13,Sergio Sosa,South Garland,81.56,158.76,127.01,185.97,471.74,Single-ply,SBD,M
Boys,82.1,14,Caleb Beard,Sunnyvale,82.01,174.63,106.59,158.76,439.98,Single-ply,SBD,M
Boys,82.1,15,Braylon Cable,Malakoff,77.56,151.95,106.59,176.9,435.45,Single-ply,SBD,M
Boys,82.1,16,Ty Winkelvoss,Mabank,80.1,170.1,102.06,158.76,430.91,Single-ply,SBD,M
Boys,82.1,17,Hunter Ryan,Crandall,76.75,158.76,88.45,172.37,419.57,Single-ply,SBD,M
Boys,82.1,18,Harley Royal,Mabank,80.01,158.76,95.25,165.56,419.57,Single-ply,SBD,M
Boys,82.1,19,Chris Thomas,North Garland,79.29,163.29,88.45,165.56,417.3,Single-ply,SBD,M
Boys,89.81,20,Chris Coleman,Rockwall-Heath,82.24,136.08,102.06,154.22,392.36,Single-ply,SBD,M
Boys,82.1,21,Jacob Ghormley,Crandall,76.29,136.08,90.72,163.29,390.09,Single-ply,SBD,M
Boys,82.1,22,Hunter McQuatters,Honey Grove,78.11,124.74,79.38,136.08,340.19,Single-ply,SBD,M
Boys,82.1,23,Nam Do,North Garland,75.93,108.86,81.65,127.01,317.51,Single-ply,SBD,M
Boys,82.1,24,Kofi Obeng,North Garland,77.2,102.06,61.23,142.88,306.17,Single-ply,SBD,M
Boys,89.81,1,Clay Wilkerson,Rockwall-Heath,83.82,188.24,124.74,183.7,496.68,Single-ply,SBD,M
Boys,89.81,2,Tristen Carstarphen,Rockwall-Heath,86.82,176.9,124.74,195.04,496.68,Single-ply,SBD,M
Boys,89.81,3,Michael McKinney,Royse City,89.81,204.12,106.59,183.7,494.42,Single-ply,SBD,M
Boys,89.81,4,Philip Prather,North Mesquite,83.19,142.88,120.2,215.46,478.54,Single-ply,SBD,M
Boys,89.81,5,Clay Carson,Mabank,87.72,161.03,102.06,192.78,455.86,Single-ply,SBD,M
Boys,89.81,6,Mark Callaway,Royse City,86.36,158.76,88.45,183.7,430.91,Single-ply,SBD,M
Boys,89.81,7,Emanuel Gonzalez,Malakoff,84.64,151.95,92.99,181.44,426.38,Single-ply,SBD,M
Boys,89.81,8,Cory Wilkerson,Rockwall-Heath,84.64,156.49,102.06,158.76,417.3,Single-ply,SBD,M
Boys,89.81,9,Gabriel Cruces,Malakoff,84.01,147.42,83.91,179.17,410.5,Single-ply,SBD,M
Boys,89.81,10,Giovanni Coronado,Kerens,82.74,147.42,86.18,172.37,405.97,Single-ply,SBD,M
Boys,89.81,11,Cole English,Melissa,85.55,138.35,95.25,138.35,371.95,Single-ply,SBD,M
Boys,89.81,12,Lansdon Yoakum,Crandall,85.18,117.93,63.5,136.08,317.51,Single-ply,SBD,M
Boys,99.79,1,Jared Loftis,Royse City,90.9,249.48,131.54,244.94,625.96,Single-ply,SBD,M
Boys,99.79,2,Alex Zepeda,Crandall,97.25,213.19,127.01,204.12,544.31,Single-ply,SBD,M
Boys,99.79,3,Isaac Adewale,North Garland,98.61,172.37,117.93,213.19,503.49,Single-ply,SBD,M
Boys,99.79,4,Jose Rios,Garland Sachse,91.44,181.44,131.54,183.7,496.68,Single-ply,SBD,M
Boys,99.79,5,Dylan Byington,Crandall,97.61,188.24,106.59,197.31,492.15,Single-ply,SBD,M
Boys,99.79,6,Michael Sheveland,Sunnyvale,98.88,174.63,113.4,204.12,492.15,Single-ply,SBD,M
Boys,99.79,7,Micah Mckaly,Sunnyvale,98.07,192.78,95.25,185.97,474,Single-ply,SBD,M
Boys,99.79,8,Hunter Montoya,Melissa,90.45,156.49,92.99,181.44,430.91,Single-ply,SBD,M
Boys,99.79,9,Ricky Zamora,Corsicana Mildred,92.9,181.44,104.33,145.15,430.91,Single-ply,SBD,M
Boys,99.79,10,William Pugh,Kerens,95.25,136.08,99.79,190.51,426.38,Single-ply,SBD,M
Boys,99.79,11,Corey Rosa,Malakoff,93.44,170.1,102.06,151.95,424.11,Single-ply,SBD,M
Boys,109.77,12,Max Castillo,Melissa,99.88,156.49,99.79,167.83,424.11,Single-ply,SBD,M
Boys,99.79,13,Kemare Govan,North Garland,93.35,149.69,90.72,181.44,421.84,Single-ply,SBD,M
Boys,99.79,14,Matt Kusano,Melissa,93.98,138.35,113.4,142.88,394.63,Single-ply,SBD,M
Boys,99.79,DQ,Remington Bator,Garland Sachse,90.54,213.19,,,,Single-ply,SBD,M
Boys,109.77,1,Jalon Scott,North Mesquite,103.96,260.82,149.69,249.48,659.98,Single-ply,SBD,M
Boys,109.77,2,Justin Jackson #3,Crandall,101.15,217.72,117.93,226.8,562.45,Single-ply,SBD,M
Boys,109.77,3,Mario Villareal,Corsicana Mildred,102.42,229.06,108.86,208.65,546.58,Single-ply,SBD,M
Boys,109.77,4,Justin Madubuike,McKinney North,104.51,181.44,113.4,204.12,498.95,Single-ply,SBD,M
Boys,109.77,5,Montrell Williams,Malakoff,106.23,174.63,115.67,181.44,471.74,Single-ply,SBD,M
Boys,109.77,6,Alex Cortez,Sunnyvale,107.95,190.51,95.25,174.63,460.4,Single-ply,SBD,M
Boys,109.77,7,Drew Grisham,McKinney North,101.06,161.03,104.33,185.97,451.32,Single-ply,SBD,M
Boys,109.77,8,Akarsh Gill,North Garland,107.95,158.76,79.38,179.17,417.3,Single-ply,SBD,M
Boys,109.77,9,Xza Epps,Honey Grove,105.23,158.76,88.45,136.08,383.29,Single-ply,SBD,M
Boys,109.77,10,Nelson Ochoa,Malakoff,109.68,217.72,120.2,,337.93,Single-ply,SB,M
Boys,124.74,1,Uche Ugwunze,McKinney North,123.01,272.16,145.15,226.8,644.1,Single-ply,SBD,M
Boys,124.74,2,Austin Horton,McKinney North,119.57,233.6,140.61,240.4,614.62,Single-ply,SBD,M
Boys,124.74,3,Jonathan Smith,North Garland,120.2,222.26,140.61,240.4,603.28,Single-ply,SBD,M
Boys,124.74,4,AJ Roland,Garland Sachse,117.3,226.8,151.95,219.99,598.74,Single-ply,SBD,M
Boys,124.74,5,Brandon Wiggleton,North Mesquite,117.12,210.92,147.42,222.26,580.6,Single-ply,SBD,M
Boys,124.74,6,Luke Linebaugh,Kemp,121.65,208.65,127.01,208.65,544.31,Single-ply,SBD,M
Boys,124.74,7,Austin Reese,Melissa,123.38,222.26,127.01,190.51,539.77,Single-ply,SBD,M
Boys,124.74,8,Marquis Engraum,South Garland,114.94,174.63,124.74,219.99,519.36,Single-ply,SBD,M
Boys,124.74,9,Brandon Brumbelow,Kerens,122.74,199.58,115.67,181.44,496.68,Single-ply,SBD,M
Boys,124.74,10,Walter Hernandez,North Garland,122.47,102.06,77.11,136.08,315.25,Single-ply,SBD,M
Boys,124.74,DQ,Bryce Hansboro,North Garland,121.56,,,,,Single-ply,SBD,M
Boys,124.74,DQ,Noel Rojo,Mabank,110.59,,,,,Single-ply,SBD,M
Boys,124.74,DQ,Reagan Cloud,Corsicana Mildred,112.67,219.99,,,,Single-ply,SBD,M
Boys,124.74+,1,Thomas Acol,Malakoff,149.69,235.87,124.74,233.6,594.21,Single-ply,SBD,M
Boys,124.74+,2,Jacob Reichenau,Crandall,136.98,229.06,133.81,229.06,591.94,Single-ply,SBD,M
Boys,124.74+,3,Cody Taylor,Royse City,127.1,208.65,142.88,219.99,571.53,Single-ply,SBD,M
Boys,124.74+,4,Wade Cookston,Sunnyvale,129.09,197.31,158.76,199.58,555.65,Single-ply,SBD,M
Boys,124.74+,5,Jorge Guerro,Rockwall-Heath,137.98,208.65,131.54,183.7,523.9,Single-ply,SBD,M
Boys,124.74+,6,Austin Frye,Royse City,132.99,204.12,113.4,183.7,501.22,Single-ply,SBD,M
Boys,124.74+,7,Dazmyne Coleman,North Mesquite,125.46,165.56,140.61,192.78,498.95,Single-ply,SBD,M
Boys,124.74+,8,Israel Chavez,Malakoff,128.46,195.04,124.74,176.9,496.68,Single-ply,SBD,M
Boys,124.74+,9,Lorenzo Bennett,North Garland,144.79,197.31,102.06,183.7,483.08,Single-ply,SBD,M
Boys,124.74+,DQ,Hogue David,North Mesquite,125.65,,,,,Single-ply,SBD,M
Boys,124.74+,DQ,Nate Thompson,Garland Sachse,159.3,124.74,,,,Single-ply,SBD,M
