Division,WeightClassKg,Place,Name,Team,BodyweightKg,Best3SquatKg,Best3BenchKg,Best3DeadliftKg,TotalKg,Equipment,Event,Sex,BirthDate
Boys,55.79,1,Aaron Bohannan,Frisco Lone Star,55.79,170.1,79.38,151.95,401.43,Single-ply,SBD,M,
Boys,55.79,2,Emeka Ubani,Frisco Memorial,55.79,127.01,99.79,129.27,356.07,Single-ply,SBD,M,
Boys,55.79,3,Trevohnn Washington,Frisco Lone Star,55.79,113.4,61.23,108.86,283.5,Single-ply,SBD,M,
Boys,59.87,1,Slayton Smith,Frisco Lone Star,59.87,90.72,45.36,92.99,229.06,Single-ply,SBD,M,
Boys,67.13,1,Reece Lunsford,Frisco Memorial,67.13,142.88,72.57,142.88,358.34,Single-ply,SBD,M,
Boys,74.84,1,Bryson Flaherty,Frisco Memorial,74.84,163.29,115.67,167.83,446.79,Single-ply,SBD,M,
Boys,74.84,DQ,Michael Elsen,Frisco Memorial,74.84,74.84,54.43,74.84,,Single-ply,SBD,M,
Boys,82.1,1,Ethan Lollar,Frisco Memorial,82.1,213.19,131.54,176.9,521.63,Single-ply,SBD,M,
Boys,82.1,2,James Liebl,Frisco Memorial,82.1,190.51,90.72,183.7,464.93,Single-ply,SBD,M,
Boys,82.1,DQ,Luke Miller,Frisco Lone Star,82.1,142.88,92.99,,,Single-ply,SBD,M,
Boys,82.1,DQ,Gavin Dennis #2,Frisco Memorial,82.1,195.04,124.74,195.04,,Single-ply,SBD,M,
Boys,89.81,1,Diego Diaz,Frisco Memorial,89.81,233.6,151.95,224.53,610.08,Single-ply,SBD,M,
Boys,89.81,2,J'Cori Hargon,Frisco Lone Star,89.81,204.12,124.74,195.04,523.9,Single-ply,SBD,M,
Boys,89.81,DQ,Max Honsaker,Frisco Memorial,89.81,176.9,120.2,183.7,,Single-ply,SBD,M,
Boys,89.81,DQ,Carlos Romero-Amador,Frisco Memorial,89.81,167.83,120.2,161.03,,Single-ply,SBD,M,
Boys,99.79,1,Kris Bailey,Frisco Lone Star,99.79,174.63,145.15,170.1,489.88,Single-ply,SBD,M,
Boys,99.79,2,Hudson Whitley,Frisco Lone Star,99.79,190.51,115.67,174.63,480.81,Single-ply,SBD,M,
Boys,99.79,3,Ethan Ang,Frisco Memorial,99.79,188.24,106.59,176.9,471.74,Single-ply,SBD,M,
Boys,109.77,1,Usoro Gabriel,Frisco Lone Star,109.77,176.9,81.65,172.37,430.91,Single-ply,SBD,M,
Boys,124.74,1,Logan Butler,Frisco Memorial,124.74,244.94,136.08,206.38,587.4,Single-ply,SBD,M,
Boys,124.74,DQ,Brad Thompson,Frisco Lone Star,124.74,,,,,Single-ply,SBD,M,
Boys,139.71,1,Brady Uhlmann,Frisco Memorial,139.71,231.33,154.22,224.53,610.08,Single-ply,SBD,M,
Boys,139.71,2,Kriz Diaz,Frisco Memorial,139.71,226.8,127.01,204.12,557.92,Single-ply,SBD,M,
