Division,WeightClassKg,Place,Name,Team,BodyweightKg,Best3SquatKg,Best3BenchKg,Best3DeadliftKg,TotalKg,Equipment,Event,Sex
Boys,51.71,1,Fernando Gonzalez,McAllen Memorial,51.71,138.35,92.99,167.83,399.16,Single-ply,SBD,M
Boys,51.71,2,Felipe Garza,McAllen,49.62,136.08,97.52,147.42,381.02,Single-ply,SBD,M
Boys,51.71,3,Tristan Villareal,Donna North,50.39,129.27,83.91,149.69,362.87,Single-ply,SBD,M
Boys,51.71,4,Martin Alaniz,Sharyland Pioneer,51.62,136.08,65.77,154.22,356.07,Single-ply,SBD,M
Boys,51.71,5,Luis Cavazos,Donna North,50.44,140.61,70.31,136.08,347,Single-ply,SBD,M
Boys,51.71,6,Luis Garcia #9,Sharyland Pioneer,51.57,111.13,52.16,124.74,288.03,Single-ply,SBD,M
Boys,51.71,7,Victor Vasquez,Sharyland Pioneer,49.62,97.52,45.36,117.93,260.82,Single-ply,SBD,M
Boys,51.71,8,Alejandro Gonzalez,Rio Grande City,51.39,81.65,56.7,86.18,224.53,Single-ply,SBD,M
Boys,55.79,1,Javier Farias,Mission,54.66,170.1,77.11,208.65,455.86,Single-ply,SBD,M
Boys,55.79,2,Fernando Mendoza,McAllen Rowe,55.75,129.27,83.91,161.03,374.21,Single-ply,SBD,M
Boys,55.79,3,Jan Ramirez,PSJA North,52.62,102.06,95.25,124.74,322.05,Single-ply,SBD,M
Boys,55.79,4,Israel Ambriz,Edinburg North,54.84,102.06,65.77,149.69,317.51,Single-ply,SBD,M
Boys,55.79,5,David Garza,La Joya Juarez-Lincoln,53.02,108.86,70.31,120.2,299.37,Single-ply,SBD,M
Boys,59.87,1,Julian Villanueva,Donna North,59.65,174.63,83.91,195.04,453.59,Single-ply,SBD,M
Boys,59.87,2,Ethan Inocando,Mission Sharyland,59.69,154.22,79.38,174.63,408.23,Single-ply,SBD,M
Boys,59.87,3,Lino Rivera,La Joya,59.78,163.29,83.91,158.76,405.97,Single-ply,SBD,M
Boys,59.87,4,Stanley Davis,McAllen Memorial,58.38,145.15,97.52,149.69,392.36,Single-ply,SBD,M
Boys,59.87,5,Alejandro Gonzalez,McAllen,59.47,138.35,88.45,154.22,381.02,Single-ply,SBD,M
Boys,67.13,1,Mario Marquez,Mission,65.09,215.46,106.59,208.65,530.7,Single-ply,SBD,M
Boys,67.13,2,Tony Lopez,Donna North,66.41,183.7,111.13,197.31,492.15,Single-ply,SBD,M
Boys,67.13,3,Jackson Littles,PSJA North,66.72,188.24,106.59,183.7,478.54,Single-ply,SBD,M
Boys,67.13,4,Rolando Saenz,Mission Sharyland,66.63,185.97,88.45,183.7,458.13,Single-ply,SBD,M
Boys,67.13,5,Augustin Chapa,Rio Grande City,66.04,176.9,113.4,165.56,455.86,Single-ply,SBD,M
Boys,67.13,6,Kameron Maples,McAllen Memorial,65.73,154.22,104.33,172.37,430.91,Single-ply,SBD,M
Boys,67.13,7,Eleazar Garcia Jr,Rio Grande City,65.82,163.29,108.86,151.95,424.11,Single-ply,SBD,M
Boys,67.13,8,Alonzo Garza,McAllen,66.59,142.88,90.72,170.1,403.7,Single-ply,SBD,M
Boys,67.13,9,Anthony Rene Trevino,Rio Grande City Grulla,61.6,136.08,81.65,183.7,401.43,Single-ply,SBD,M
Boys,67.13,10,Adan Elizondo,La Joya,66.9,142.88,102.06,154.22,399.16,Single-ply,SBD,M
Boys,67.13,11,Erick Castro,Mission Veterans Memorial,65.41,145.15,86.18,136.08,367.41,Single-ply,SBD,M
Boys,67.13,12,Uriel Martinez,Edinburg North,60.87,124.74,74.84,124.74,324.32,Single-ply,SBD,M
Boys,67.13,13,Diego Mercado,Mission Veterans Memorial,63.64,99.79,63.5,124.74,288.03,Single-ply,SBD,M
Boys,67.13,DQ,Dylan Bazarte,Mission Sharyland,66.68,197.31,113.4,,,Single-ply,SBD,M
Boys,67.13,DQ,Fernie Briones,McAllen Memorial,65.68,,,,,Single-ply,SBD,M
Boys,74.84,1,Coy Burrows,Sharyland Pioneer,74.43,226.8,161.03,226.8,614.62,Single-ply,SBD,M
Boys,74.84,2,Robert Farias,Mission Sharyland,72.26,244.94,122.47,204.12,571.53,Single-ply,SBD,M
Boys,74.84,3,Alejandro Cortez,Edinburg North,74.71,215.46,120.2,224.53,560.19,Single-ply,SBD,M
Boys,74.84,4,Alex Benavides,Donna North,74.16,213.19,124.74,195.04,532.97,Single-ply,SBD,M
Boys,74.84,5,Omar Diaz,PSJA Memorial,73.39,192.78,158.76,170.1,521.63,Single-ply,SBD,M
Boys,74.84,6,Adrian Leija,Mission Veterans Memorial,71.26,185.97,131.54,190.51,508.02,Single-ply,SBD,M
Boys,74.84,7,Fabian Rodriguez,McAllen Memorial,74.71,190.51,138.35,172.37,501.22,Single-ply,SBD,M
Boys,74.84,8,Emiliano Becerril,Mission Sharyland,68.99,183.7,113.4,183.7,480.81,Single-ply,SBD,M
Boys,74.84,9,Brian Pena,Rio Grande City,74.66,181.44,111.13,176.9,469.47,Single-ply,SBD,M
Boys,74.84,10,Santino Pascual,Mission Sharyland,74.34,195.04,113.4,158.76,467.2,Single-ply,SBD,M
Boys,74.84,11,Ruben D Saenz III,McAllen Rowe,69.44,174.63,90.72,165.56,430.91,Single-ply,SBD,M
Boys,74.84,12,Leonardo Perez,Mission,68.76,138.35,95.25,183.7,417.3,Single-ply,SBD,M
Boys,74.84,13,Malachai Ortega,Edinburg North,72.85,138.35,90.72,172.37,401.43,Single-ply,SBD,M
Boys,74.84,14,Joshua Ortiz,McAllen Rowe,70.35,156.49,86.18,145.15,387.82,Single-ply,SBD,M
Boys,74.84,15,Braulio Garza,Rio Grande City Grulla,72.35,142.88,97.52,142.88,383.29,Single-ply,SBD,M
Boys,74.84,16,Abraham Salinas,Rio Grande City Grulla,69.22,136.08,99.79,133.81,369.68,Single-ply,SBD,M
Boys,82.1,1,Christian Cortina,Donna North,80.33,235.87,124.74,238.14,598.74,Single-ply,SBD,M
Boys,82.1,2,Alter Arenas,PSJA North,81.6,231.33,133.81,219.99,585.13,Single-ply,SBD,M
Boys,82.1,3,Jonas Ortiz,McAllen Rowe,80.97,185.97,120.2,213.19,519.36,Single-ply,SBD,M
Boys,82.1,4,Elian Padilla,La Joya Juarez-Lincoln,80.92,183.7,111.13,190.51,485.34,Single-ply,SBD,M
Boys,82.1,5,Michael Villarreal,Edinburg North,76.57,136.08,95.25,188.24,419.57,Single-ply,SBD,M
Boys,82.1,6,Isacc Gamboa,McAllen Rowe,78.06,147.42,106.59,149.69,403.7,Single-ply,SBD,M
Boys,82.1,7,Joe Ramirez,Rio Grande City Grulla,76.16,156.49,56.7,138.35,351.53,Single-ply,SBD,M
Boys,82.1,DQ,Armando Resendez,McAllen Memorial,80.47,,,,,Single-ply,SBD,M
Boys,82.1,DQ,Sebastian Sanchez,Mission Sharyland,82.01,226.8,122.47,,,Single-ply,SBD,M
Boys,89.81,1,Aaron Alvarez,PSJA North,88.31,260.82,154.22,244.94,659.98,Single-ply,SBD,M
Boys,89.81,2,Gabriel Sanchez,McAllen,89.77,247.21,133.81,210.92,591.94,Single-ply,SBD,M
Boys,89.81,3,Miguel Rendon,Mission,85.18,226.8,131.54,226.8,585.13,Single-ply,SBD,M
Boys,89.81,4,Axel Hernandez #1,McAllen Memorial,89.81,213.19,133.81,233.6,580.6,Single-ply,SBD,M
Boys,89.81,5,Erik Guzman,La Joya Juarez-Lincoln,87.23,204.12,133.81,204.12,542.04,Single-ply,SBD,M
Boys,89.81,6,Gonzalo Perez,Mission,86.5,206.38,124.74,206.38,537.51,Single-ply,SBD,M
Boys,89.81,7,Benjamin Passement,McAllen,88.81,204.12,136.08,185.97,526.17,Single-ply,SBD,M
Boys,89.81,8,Juan Casarez,Edinburg North,87.86,183.7,124.74,204.12,512.56,Single-ply,SBD,M
Boys,89.81,9,Roland Briseno,McAllen,87.54,204.12,151.95,154.22,510.29,Single-ply,SBD,M
Boys,89.81,10,Luis Mireles,PSJA Memorial,89.4,188.24,117.93,170.1,476.27,Single-ply,SBD,M
Boys,89.81,11,Marc Garcia,La Joya,86.82,170.1,113.4,154.22,437.72,Single-ply,SBD,M
Boys,89.81,12,Juan Villareal,Sharyland Pioneer,85.37,158.76,102.06,163.29,424.11,Single-ply,SBD,M
Boys,89.81,13,Alex Galaviz,La Joya,86.68,142.88,95.25,181.44,419.57,Single-ply,SBD,M
Boys,89.81,14,Angel Olvero,La Joya,84.01,149.69,74.84,163.29,387.82,Single-ply,SBD,M
Boys,89.81,15,David Flores,Edinburg North,82.78,136.08,83.91,147.42,367.41,Single-ply,SBD,M
Boys,89.81,DQ,Raymundo Luevano,Edinburg North,88.09,142.88,124.74,,,Single-ply,SBD,M
Boys,89.81,DQ,Leonardo Gonzalez,Mission Veterans Memorial,86.23,,,,,Single-ply,SBD,M
Boys,89.81,DQ,Jacob Cano,Mission Sharyland,87.63,,,,,Single-ply,SBD,M
Boys,89.81,DQ,Kevin Cantu,PSJA North,89.27,224.53,138.35,,,Single-ply,SBD,M
Boys,99.79,1,Sebastian Buitron,McAllen,98.38,281.23,154.22,249.48,684.92,Single-ply,SBD,M
Boys,99.79,2,Fernando Reyna,Donna North,99.38,242.67,163.29,247.21,653.17,Single-ply,SBD,M
Boys,99.79,3,Julian Hernandez,McAllen Memorial,99.79,272.16,163.29,213.19,648.64,Single-ply,SBD,M
Boys,99.79,4,Fabian Ahumada,Mission,98.97,229.06,131.54,226.8,587.4,Single-ply,SBD,M
Boys,99.79,5,Tony Gandaria,Donna North,93.67,215.46,145.15,208.65,569.26,Single-ply,SBD,M
Boys,99.79,6,Aj Flores,Mission,95.62,199.58,131.54,233.6,564.72,Single-ply,SBD,M
Boys,99.79,7,Jesus Chavana,La Joya,97.07,215.46,106.59,235.87,557.92,Single-ply,SBD,M
Boys,99.79,8,Cesar Escaname,McAllen Memorial,90.99,226.8,131.54,192.78,551.11,Single-ply,SBD,M
Boys,99.79,9,Aaron Gonzalez,McAllen,93.44,197.31,120.2,229.06,546.58,Single-ply,SBD,M
Boys,99.79,10,Daniel Alejandro,McAllen Rowe,98.43,213.19,129.27,195.04,537.51,Single-ply,SBD,M
Boys,99.79,11,Santos Gomez,PSJA Memorial,98.79,192.78,145.15,199.58,537.51,Single-ply,SBD,M
Boys,99.79,12,Luis Venecia,La Joya Juarez-Lincoln,91.13,208.65,129.27,197.31,535.24,Single-ply,SBD,M
Boys,99.79,13,John Garcia,Mission Veterans Memorial,94.76,224.53,122.47,176.9,523.9,Single-ply,SBD,M
Boys,99.79,14,Zac Compean,Rio Grande City,95.84,215.46,111.13,183.7,510.29,Single-ply,SBD,M
Boys,99.79,15,Erik Flores,La Joya Juarez-Lincoln,93.94,199.58,111.13,185.97,496.68,Single-ply,SBD,M
Boys,99.79,16,Alvaro Ramirez,La Joya Juarez-Lincoln,95.62,183.7,115.67,192.78,492.15,Single-ply,SBD,M
Boys,99.79,17,Adrian Villegas,Mission,96.93,188.24,108.86,192.78,489.88,Single-ply,SBD,M
Boys,99.79,18,Arturo Del Angel,La Joya,99.2,181.44,122.47,179.17,483.08,Single-ply,SBD,M
Boys,99.79,19,Chris Martinez,PSJA North,99.47,183.7,115.67,183.7,483.08,Single-ply,SBD,M
Boys,99.79,20,Marck Placencia,PSJA Memorial,98.97,183.7,102.06,158.76,444.52,Single-ply,SBD,M
Boys,99.79,21,Abelino Lopez,Rio Grande City Grulla,92.03,142.88,86.18,174.63,403.7,Single-ply,SBD,M
Boys,99.79,22,Devin Gonzalez #1,Rio Grande City,90.81,145.15,104.33,151.95,401.43,Single-ply,SBD,M
Boys,99.79,23,Victoriano Chapa,Rio Grande City Grulla,97.52,127.01,74.84,133.81,335.66,Single-ply,SBD,M
Boys,99.79,DQ,Moises Pena Jr,Rio Grande City Grulla,96.48,226.8,,,,Single-ply,SBD,M
Boys,99.79,DQ,Jaime Quintero,PSJA Memorial,92.08,,,,,Single-ply,SBD,M
Boys,109.77,1,Fabian Martinez,Donna North,104.55,283.5,138.35,219.99,641.83,Single-ply,SBD,M
Boys,109.77,2,Ricardo Rangel,Donna North,109.32,229.06,151.95,226.8,607.81,Single-ply,SBD,M
Boys,109.77,3,Streven Pedraza,McAllen,109.77,215.46,142.88,233.6,591.94,Single-ply,SBD,M
Boys,109.77,4,Ezequiel Garcia,La Joya Juarez-Lincoln,102.06,210.92,136.08,210.92,557.92,Single-ply,SBD,M
Boys,109.77,5,Juan Gomez,Mission Sharyland,108,235.87,113.4,204.12,553.38,Single-ply,SBD,M
Boys,109.77,6,Rusbel Alanis Jr,Rio Grande City Grulla,104.37,210.92,129.27,199.58,539.77,Single-ply,SBD,M
Boys,109.77,7,Abel Silva,Rio Grande City,108.09,190.51,138.35,208.65,537.51,Single-ply,SBD,M
Boys,109.77,8,Christian Hernandez,La Joya Juarez-Lincoln,109.77,197.31,117.93,199.58,514.83,Single-ply,SBD,M
Boys,109.77,9,Gonzalo Montalvo Jr,Rio Grande City Grulla,105.37,204.12,127.01,181.44,512.56,Single-ply,SBD,M
Boys,109.77,10,Kris Garza,Rio Grande City,108.86,210.92,108.86,181.44,501.22,Single-ply,SBD,M
Boys,109.77,11,Kaleb Garza,Rio Grande City,102.87,195.04,106.59,192.78,494.42,Single-ply,SBD,M
Boys,109.77,12,Alexander Guerra,McAllen Memorial,108.45,204.12,102.06,176.9,483.08,Single-ply,SBD,M
Boys,109.77,13,Fausto Anaya,McAllen Rowe,108,190.51,95.25,179.17,464.93,Single-ply,SBD,M
Boys,109.77,14,Daniel Roman,Sharyland Pioneer,109.23,185.97,117.93,147.42,451.32,Single-ply,SBD,M
Boys,109.77,15,Benjamin Rios,Rio Grande City Grulla,105.55,131.54,86.18,167.83,385.55,Single-ply,SBD,M
Boys,109.77,16,Jose Cavazos,McAllen Rowe,101.33,145.15,79.38,140.61,365.14,Single-ply,SBD,M
Boys,109.77,DQ,Carlos Calvillo,La Joya,106.73,185.97,106.59,,,Single-ply,SBD,M
Boys,109.77,DQ,Daniel Domian,McAllen Memorial,109.77,238.14,,,,Single-ply,SBD,M
Boys,109.77,DQ,Andrew Torres,Sharyland Pioneer,101.29,,,,,Single-ply,SBD,M
Boys,124.74,1,Steven Alvarez,Mission,122.56,258.55,170.1,247.21,675.85,Single-ply,SBD,M
Boys,124.74,2,Kevin Lopez,PSJA Memorial,119.61,272.16,158.76,242.67,673.58,Single-ply,SBD,M
Boys,124.74,3,Joshua Williams,Mission Sharyland,123.51,242.67,156.49,235.87,635.03,Single-ply,SBD,M
Boys,124.74,4,Osiel Alonso,La Joya Juarez-Lincoln,120.75,244.94,149.69,219.99,614.62,Single-ply,SBD,M
Boys,124.74,5,Isreal Moncivais,La Joya Juarez-Lincoln,124.74,235.87,142.88,226.8,605.55,Single-ply,SBD,M
Boys,124.74,6,Jesse Garza,McAllen Rowe,117.34,206.38,147.42,219.99,573.79,Single-ply,SBD,M
Boys,124.74,7,Jose Resendez,Donna North,124.65,235.87,115.67,183.7,535.24,Single-ply,SBD,M
Boys,124.74,8,Martin Rodriguez #5,McAllen,119.2,208.65,127.01,188.24,523.9,Single-ply,SBD,M
Boys,124.74,9,Diego Ochoa,Mission Sharyland,120.79,204.12,102.06,183.7,489.88,Single-ply,SBD,M
Boys,124.74,10,Humberto Gonzalez,Rio Grande City,113.58,176.9,102.06,138.35,417.3,Single-ply,SBD,M
Boys,124.74,DQ,Isaiah Baker,Mission Veterans Memorial,115.53,,,,,Single-ply,SBD,M
Boys,124.74,DQ,Felix Alvarado,PSJA North,116.8,258.55,,,,Single-ply,SBD,M
Boys,124.74,DQ,Guadalupe Bazan,Rio Grande City Grulla,112.4,,,,,Single-ply,SBD,M
Boys,124.74,DQ,Anthony Ortiz,Rio Grande City,120.34,210.92,129.27,,,Single-ply,SBD,M
Boys,124.74+,1,Jose Chavez,La Joya,177.13,317.51,158.76,251.74,728.02,Single-ply,SBD,M
Boys,124.74+,2,Joshua Vaquera,PSJA Memorial,150.18,288.03,176.9,254.01,718.94,Single-ply,SBD,M
Boys,124.74+,3,Lee Roy Carrizalez,PSJA Memorial,127.37,303.91,167.83,238.14,709.87,Single-ply,SBD,M
Boys,124.74+,4,Frank Saucedo,PSJA North,131.54,288.03,181.44,226.8,696.26,Single-ply,SBD,M
Boys,124.74+,5,Bryan Aguillon,McAllen Rowe,135.13,274.42,147.42,256.28,678.12,Single-ply,SBD,M
Boys,124.74+,6,Joel Iracheta,PSJA North,131.54,288.03,167.83,219.99,675.85,Single-ply,SBD,M
Boys,124.74+,7,Zack Clemmons,Mission,131.36,256.28,183.7,226.8,666.78,Single-ply,SBD,M
Boys,124.74+,8,Jimmy Talamantes,McAllen Rowe,140.61,206.38,115.67,170.1,492.15,Single-ply,SBD,M
Boys,124.74+,9,Jose Martinez,PSJA Memorial,139.53,170.1,117.93,147.42,435.45,Single-ply,SBD,M
Boys,124.74+,10,Roble Rios,Edinburg North,127.96,154.22,117.93,124.74,396.89,Single-ply,SBD,M
Boys,124.74+,DQ,Sergio Reyna,McAllen Memorial,126.92,283.5,,,,Single-ply,SBD,M
