Division,WeightClassKg,Place,Name,Team,BodyweightKg,Best3SquatKg,Best3BenchKg,Best3DeadliftKg,TotalKg,Equipment,Event,Sex,BirthDate
Boys,51.71,1,Md Jawwadullah,Frisco Liberty,50.8,90.72,45.36,124.74,260.82,Single-ply,SBD,M,
Boys,55.79,1,Noah Clasen,Frisco Wakeland,52.8,92.99,45.36,102.06,240.4,Single-ply,SBD,M,
Boys,59.87,1,Ameer Alnseirat,Frisco Liberty,58.83,106.59,56.7,115.67,278.96,Single-ply,SBD,M,
Boys,67.13,1,Dylan Hardin,Frisco,66.68,154.22,111.13,102.06,367.41,Single-ply,SBD,M,
Boys,67.13,2,Logan Nate,Frisco Wakeland,62.32,106.59,65.77,117.93,290.3,Single-ply,SBD,M,
Boys,67.13,3,Ehab Alnseirat,Frisco Liberty,65.63,102.06,58.97,108.86,269.89,Single-ply,SBD,M,
Boys,74.84,1,Ben Anderson,Frisco Liberty,73.84,195.04,127.01,199.58,521.63,Single-ply,SBD,M,
Boys,74.84,2,Caleb Forte,Frisco Liberty,73.53,172.37,120.2,176.9,469.47,Single-ply,SBD,M,
Boys,74.84,3,Josh Wilson,Frisco Wakeland,70.35,149.69,108.86,163.29,421.84,Single-ply,SBD,M,
Boys,74.84,4,Payton Stamper,Frisco Wakeland,70.49,145.15,102.06,165.56,412.77,Single-ply,SBD,M,
Boys,74.84,5,D'Mire Albert,Frisco,74.03,124.74,72.57,131.54,328.85,Single-ply,SBD,M,
Boys,74.84,6,Jordan Hamilton,Frisco,74.48,124.74,74.84,102.06,301.64,Single-ply,SBD,M,
Boys,82.1,1,Garrett Maynard,Frisco Wakeland,80.78,192.78,97.52,181.44,471.74,Single-ply,SBD,M,
Boys,82.1,2,Bernie Ortiz,Frisco Liberty,80.1,183.7,97.52,183.7,464.93,Single-ply,SBD,M,
Boys,82.1,3,Christian Wilson,Frisco Wakeland,78.43,165.56,113.4,174.63,453.59,Single-ply,SBD,M,
Boys,82.1,4,Bennett Dinota,Frisco,80.15,158.76,102.06,158.76,419.57,Single-ply,SBD,M,
Boys,89.81,1,Xavier Holehan,Frisco Wakeland,83.1,183.7,102.06,174.63,460.4,Single-ply,SBD,M,
Boys,89.81,DQ,Kody Johnson,Frisco Wakeland,86.32,,,,,Single-ply,SBD,M,
Boys,99.79,1,Jaewon Lee,Frisco Wakeland,96.98,199.58,120.2,233.6,553.38,Single-ply,SBD,M,
Boys,99.79,2,Nick Teta,Frisco Liberty,99.29,215.46,120.2,210.92,546.58,Single-ply,SBD,M,
Boys,99.79,3,Joseph Hancock,Frisco Liberty,98.84,197.31,90.72,192.78,480.81,Single-ply,SBD,M,
Boys,99.79,4,Will Hickman,Frisco Wakeland,98.07,188.24,104.33,183.7,476.27,Single-ply,SBD,M,
Boys,99.79,5,Nitin Vejju,Frisco Liberty,95.84,90.72,52.16,104.33,247.21,Single-ply,SBD,M,
Boys,99.79,DQ,Chase King,Frisco,90.95,151.95,,,,Single-ply,SBD,M,
Boys,109.77,1,Carson McMillin,Frisco Wakeland,104.69,192.78,106.59,192.78,492.15,Single-ply,SBD,M,
Boys,109.77,2,Dickson Addo,Frisco Liberty,106.78,183.7,92.99,204.12,480.81,Single-ply,SBD,M,
Boys,109.77,3,Jack Jones #2,Frisco Wakeland,102.42,138.35,83.91,142.88,365.14,Single-ply,SBD,M,
Boys,109.77,DQ,Dillon Davis #5,Frisco Liberty,102.24,163.29,,,,Single-ply,SBD,M,
Boys,124.74,1,Austin Reeves,Frisco,122.52,226.8,151.95,204.12,582.87,Single-ply,SBD,M,
Boys,124.74,2,Jadon Simmons,Frisco Liberty,111.63,149.69,113.4,136.08,399.16,Single-ply,SBD,M,
