Division,WeightClassKg,Place,Name,Team,BodyweightKg,Best3SquatKg,Best3BenchKg,Best3DeadliftKg,TotalKg,Equipment,Event,Sex,BirthDate
Boys,51.71,1,Shane Schilder,Shelbyville,51.71,102.06,58.97,113.4,274.42,Single-ply,SBD,M,
Boys,55.79,1,Jace Lindsay,Beckville,55.79,129.27,79.38,142.88,351.53,Single-ply,SBD,M,
Boys,55.79,2,Dylan Windham,Center,55.79,77.11,47.63,104.33,229.06,Single-ply,SBD,M,
Boys,59.87,1,Jsaul Landaverde,San Augustine,59.42,99.79,86.18,129.27,315.25,Single-ply,SBD,M,
Boys,59.87,2,Isaiah Hardison,Joaquin,57.7,97.52,63.5,106.59,267.62,Single-ply,SBD,M,
Boys,67.13,1,Chandler Jones,Center,65.77,170.1,88.45,165.56,424.11,Single-ply,SBD,M,
Boys,67.13,2,Eric Allen,Center,63.5,129.27,79.38,167.83,376.48,Single-ply,SBD,M,
Boys,67.13,3,Dylan Collins,Beckville,63.23,106.59,61.23,124.74,292.57,Single-ply,SBD,M,
Boys,67.13,4,Tanner Myers,Center,66.95,86.18,63.5,95.25,244.94,Single-ply,SBD,M,
Boys,74.84,1,Caleb Ridgeway,Shelbyville,70.58,192.78,83.91,199.58,476.27,Single-ply,SBD,M,
Boys,74.84,2,Kyle Coleman,Beckville,74.84,165.56,90.72,174.63,430.91,Single-ply,SBD,M,
Boys,74.84,3,Milo Morrison,Beckville,74.48,165.56,92.99,167.83,426.38,Single-ply,SBD,M,
Boys,74.84,4,Timothy Davis,Center,71.76,158.76,79.38,172.37,410.5,Single-ply,SBD,M,
Boys,74.84,5,Bradley Mitchell,Hemphill,71.03,124.74,68.04,161.03,353.8,Single-ply,SBD,M,
Boys,74.84,6,Cristian Acosta,San Augustine,71.58,108.86,70.31,145.15,324.32,Single-ply,SBD,M,
Boys,82.1,1,Kevorian Barnes,San Augustine,81.74,185.97,113.4,204.12,503.49,Single-ply,SBD,M,
Boys,82.1,2,Jesus Bravo,Joaquin,78.93,183.7,120.2,183.7,487.61,Single-ply,SBD,M,
Boys,82.1,3,Zach Clark,Shelbyville,77.11,181.44,104.33,172.37,458.13,Single-ply,SBD,M,
Boys,82.1,4,Hagen Crumpton,Shelbyville,81.28,170.1,97.52,181.44,449.06,Single-ply,SBD,M,
Boys,82.1,5,Grady Clay,Shelbyville,80.56,167.83,81.65,183.7,433.18,Single-ply,SBD,M,
Boys,82.1,6,Dylan Robbins,Shelbyville,78.65,156.49,86.18,163.29,405.97,Single-ply,SBD,M,
Boys,82.1,7,Carlos Acosta #2,San Augustine,79.92,113.4,97.52,183.7,394.63,Single-ply,SBD,M,
Boys,89.81,1,Dekylin Hoyt,Center,85.28,204.12,136.08,181.44,521.63,Single-ply,SBD,M,
Boys,89.81,2,Chase Adkinson,Center,83.82,172.37,129.27,192.78,494.42,Single-ply,SBD,M,
Boys,89.81,3,Waiett Emmerson,Center,89.81,174.63,88.45,170.1,433.18,Single-ply,SBD,M,
Boys,89.81,4,Jacoarvious Horton,Center,86,158.76,83.91,176.9,419.57,Single-ply,SBD,M,
Boys,89.81,5,Jolon Garner,San Augustine,88.09,142.88,79.38,158.76,381.02,Single-ply,SBD,M,
Boys,89.81,6,Dylan Caldwell,San Augustine,87.27,79.38,68.04,136.08,283.5,Single-ply,SBD,M,
Boys,89.81,DQ,Joe Harris,Hemphill,87.18,147.42,81.65,,,Single-ply,SBD,M,
Boys,99.79,1,Dre'Lyn Washington,Hemphill,95.16,226.8,136.08,204.12,566.99,Single-ply,SBD,M,
Boys,109.77,1,Eric Lopez,Center,109.59,238.14,147.42,183.7,569.26,Single-ply,SBD,M,
Boys,109.77,2,Braylon Simmons,San Augustine,107.59,210.92,108.86,231.33,551.11,Single-ply,SBD,M,
Boys,109.77,3,Rodrick Gardner,Center,108.86,197.31,106.59,167.83,471.74,Single-ply,SBD,M,
Boys,109.77,4,Collin Lloyd,Shelbyville,105.41,122.47,52.16,108.86,283.5,Single-ply,SBD,M,
Boys,109.77,DQ,Bo Conn,Hemphill,106.96,185.97,124.74,,,Single-ply,SBD,M,
Boys,124.74,1,Corey Clifton,San Augustine,113.49,172.37,108.86,235.87,517.1,Single-ply,SBD,M,
Boys,124.74,2,Randall Shivers,Beckville,115.94,167.83,86.18,158.76,412.77,Single-ply,SBD,M,
Boys,124.74,3,Dawson Jackson,Shelbyville,112.49,154.22,77.11,136.08,367.41,Single-ply,SBD,M,
Boys,124.74,4,Javian Holman,San Augustine,115.48,120.2,83.91,136.08,340.19,Single-ply,SBD,M,
Boys,124.74+,1,Trey Cartwright,Shelbyville,142.88,226.8,127.01,204.12,557.92,Single-ply,SBD,M,
Boys,124.74+,2,Cj Goodwin,Center,154.22,174.63,124.74,204.12,503.49,Single-ply,SBD,M,
Boys,124.74+,3,La'Corey Buckley,Center,150.14,181.44,131.54,183.7,496.68,Single-ply,SBD,M,
Boys,124.74+,4,Kameryn Henry,Center,145.15,145.15,90.72,158.76,394.63,Single-ply,SBD,M,
Boys,,NS,Jakory Standley,Shelbyville,,,,,,Single-ply,SBD,M,
Boys,,NS,Adam Gardner,Hemphill,,,,,,Single-ply,SBD,M,
